digraph TeX {
  size="10,10";
  graph [rankdir=LR, sep="+5,0"];

  node [style=filled, color=white, fontname="Lucida Sans"];

  {
    node [shape=none, color=white, fillcolor=white, fontsize=20, height=.5];
    1962 -> 1963 [style=invis];
    1963 -> 1964 [style=invis];
    1964 -> 1965 [style=invis];
    1965 -> 1966 [style=invis];
    1966 -> 1967 [style=invis];
    1967 -> 1968 [style=invis];
    1968 -> 1969 [style=invis];
    1969 -> 1970 [style=invis];
    1970 -> 1971 [style=invis];
    1971 -> 1972 [style=invis];
    1972 -> 1973 [style=invis];
    1973 -> 1974 [style=invis];
    1974 -> 1975 [style=invis];
    1975 -> 1976 [style=invis];
    1976 -> 1977 [style=invis];
    1977 -> 1978 [style=invis];
    1978 -> 1979 [style=invis];
    1979 -> 1980 [style=invis];
    1980 -> 1981 [style=invis];
    1981 -> 1982 [style=invis];
    1982 -> 1983 [style=invis];
    1983 -> 1984 [style=invis];
    1984 -> 1985 [style=invis];
    1985 -> 1986 [style=invis];
    1986 -> 1987 [style=invis];
    1987 -> 1988 [style=invis];
    1988 -> 1989 [style=invis];
    1989 -> 1990 [style=invis];
    1990 -> 1991 [style=invis];
    1991 -> 1992 [style=invis];
    1992 -> 1993 [style=invis];
    1993 -> 1994 [style=invis];
    1994 -> 1995 [style=invis];
    1995 -> 1996 [style=invis];
    1996 -> 1997 [style=invis];
    1997 -> 1998 [style=invis];
    1998 -> 1999 [style=invis];
    1999 -> 2000 [style=invis];
    2000 -> 2001 [style=invis];
    2001 -> 2002 [style=invis];
    2002 -> 2003 [style=invis];
    2003 -> 2004 [style=invis];
    2004 -> 2005 [style=invis];
    2005 -> 2006 [style=invis];
    2006 -> 2007 [style=invis];
    2007 -> 2008 [style=invis];
    2008 -> 2009 [style=invis];
    2009 -> 2010 [style=invis];
    2010 -> 2011 [style=invis];
    2011 -> 2012 [style=invis];
    2012 -> future2 [style=invis]; future2 [label="future"];
    future2 -> future1 [style=invis]; future1 [label=""];
    future1 -> future [style=invis]; future [label=""];
  }

  {
    node [shape=box, fillcolor=cornsilk3];
    { rank=same; 1962; TAOCP0 [label="Work on\nTAOCP\nbegins", fillcolor=white]; }
    { rank=same; 1968; TAOCP1 [label="TAOCP\nVol. 1\nFundamental\nAlgorithms"]; }
    { rank=same; 1969; TAOCP2 [label="TAOCP\nVol. 2\nSeminumerical\nAlgorithms"]; }
    { rank=same; 1973; TAOCP3 [label="TAOCP\nVol. 3\nSorting and\nSearching"]; }
    { rank=same; 1999; MMIXware [label="MMIXware"]; }
    { rank=same; 2008; TAOCP4f0 [label="TAOCP\nVol. 4\nFas. 0"]; }
    { rank=same; 2009; TAOCP4f1 [label="TAOCP\nVol. 4\nFas. 1"]; }
    { rank=same; 2005; TAOCP4f23 [label="TAOCP\nVol. 4\nFas. 2/3"]; }
    { rank=same; 2006; TAOCP4f4 [label="TAOCP\nVol. 4\nFas. 4"]; }
    { rank=same; 2011; TAOCP4A [label="TAOCP\nVol. 4A\nCombinatorical\nAlgorithms\nPart 1"]; }
    { rank=same; future2; TAOCP4B [label="TAOCP\nVol. 4B"]; }
    { rank=same; future1; TAOCP4C [label="TAOCP\nVol. 4C"]; }
    { rank=same; future; TAOCP5 [label="TAOCP\nVol. 5"]; }
    TAOCP0 -> TAOCP1 [style=solid, arrowhead=none];
    TAOCP1 -> TAOCP2 [style=solid, arrowhead=none];
    TAOCP2 -> TAOCP3 [style=solid, arrowhead=none];
    TAOCP3 -> MMIXware [style=solid, arrowhead=none];
    MMIXware -> TAOCP4f23 [style=solid, arrowhead=none];
    TAOCP4f23 -> TAOCP4f4 [style=solid, arrowhead=none];
    TAOCP4f4 -> TAOCP4f0 [style=solid, arrowhead=none];
    TAOCP4f0 -> TAOCP4f1 [style=solid, arrowhead=none];
    TAOCP4f1 -> TAOCP4A [style=solid, arrowhead=none];
    TAOCP4A -> TAOCP4B [style=solid, arrowhead=none];
    TAOCP4B -> TAOCP4C [style=solid, arrowhead=none];
    TAOCP4C -> TAOCP5 [style=solid, arrowhead=none];
  }

  {
    node [shape=box, fillcolor=cornsilk3];

    { rank=same; 1974; SN [label="Surreal\nNumbers"]; }
    { rank=same; 1976; MS [label="Marriages\nStables"]; }

    { rank=same; 1979; NDIT [label="TeX &\nMETAFONT:\nNew Directions\nin Typesetting"]; }

    { rank=same; 1984; CT_A [label="Computers &\nTypesetting,\nVol. A:\nThe TeXbook"]; }
    { rank=same; 1986; CT_B [label="Computers &\nTypesetting,\nVol. B:\nTeX:\nThe Program"]; }
    { rank=same; 1986; CT_C [label="Computers &\nTypesetting,\nVol. C:\nThe\nMETAFONTbook"]; }
    { rank=same; 1986; CT_D [label="Computers &\nTypesetting,\nVol. D:\nMETAFONT:\nThe Program"]; }
    { rank=same; 1986; CT_E [label="Computers &\nTypesetting,\nVol. E:\nComputer\nModern\nTypefaces"]; }
    NDIT -> CT_A [style=solid];
    NDIT -> CT_C [style=solid];
    NDIT -> CT_E [style=solid];
    CT_A -> CT_B [style=dotted, arrowhead=none];
    CT_B -> CT_C [style=invis];
    CT_C -> CT_D [style=dotted, arrowhead=none];
    CT_D -> CT_E [style=invis];
    /* CT_C -> CT_E [style=dotted, arrowhead=none] */
    /* CT_A -> CT_E [style=dotted, arrowhead=none] */

    { rank=same; 1992; AH [label="Axioms\nand Hulls"]; }
    { rank=same; 1992; LP [label="Literate\nProgramming"]; }
    { rank=same; 1993; CWEB_SOSD [label="The CWEB\nSystem of\nStructured\nDocumentation"]; }
    /* CT_C -> LP [style=invis]; */
    LP -> CWEB_SOSD [style=invis];

    { rank=same; 1983; LP_TCJ [label="Literate\nProgramming\n(The Computer\nJournal)"]; }
    { rank=same; 1989; MW [label="Mathematical\nWriting"]; }
    { rank=same; 1990; MFTAOA [label="Mathematics\nfor the\nAnalysis of\nAlgorithms\n3rd Ed."]; }
    { rank=same; 1990; BTI [label="3:16\nBible Texts\nIlluminated"]; }
    { rank=same; 1994; CM [label="Concrete\nMathematics"]; }
    { rank=same; 1994; SGB [label="The\nStanford\nGraphBase"]; }
    { rank=same; 1996; SP_CS [label="Selected\nPapers on\nComputer\nScience"]; }
    { rank=same; 1999; DigTypo [label="Digital\nTypography"]; }
    { rank=same; 2000; SP_AA [label="Selected\nPapers on\nAnalysis of\nAlgorithms"]; }
    { rank=same; 2001; TACSRTA [label="Things a\nComputer\nScientist\nRarely\nTalks About"]; }
    { rank=same; 2003; SP_CL [label="Selected\nPapers on\nComputer\nLanguages"]; }
    { rank=same; 2003; SP_DM [label="Selected\nPapers on\nDiscrete on\nMathematics"]; }
    { rank=same; 2010; SP_DA [label="Selected\nPapers on\nDesign of\nAlgorithms"]; }
    { rank=same; 2010; SP_FG [label="Selected\nPapers on\nFun and\nGames"]; }
    { rank=same; 2011; CP_DEK [label="Companion to\nthe Papers of\nD.E.K."]; }

    LP_TCJ -> LP [style=dotted, arrowhead=none];
    /* SGB -> CM [style=invis]; */
    /* CWEB_SOSD -> CM [style=invis]; */
    /* CM -> SP_CS [style=invis]; */
    SP_CS -> DigTypo [style=invis];
    DigTypo -> SP_AA [style=invis];
    SP_AA -> SP_DM [style=invis];
    SP_DM -> SP_DA [style=invis];
    SP_DA -> CP_DEK [style=invis];
    SP_DA -> SP_FG [style=invis];
    SP_DM -> SP_CL [style=invis];
    /* AH -> CM [style=invis]; */

    /* kludge */
    { rank=same; future; SGBfuture [label="", fillcolor=white]; }
    SGB -> SGBfuture [style=invis];

    MW -> MFTAOA [style=dotted, arrowhead=none];
    MFTAOA -> CM [style=dotted, arrowhead=none];

    LP -> SGB [style=dotted, arrowhead=none];
    LP -> CWEB_SOSD [style=dotted, arrowhead=none];
    LP -> CP_DEK [style=dotted, arrowhead=none];
    SP_CS -> CP_DEK [style=dotted, arrowhead=none];
    DigTypo -> CP_DEK [style=dotted, arrowhead=none];
    SP_AA -> CP_DEK [style=dotted, arrowhead=none];
    SP_CL -> CP_DEK [style=dotted, arrowhead=none];
    SP_DM -> CP_DEK [style=dotted, arrowhead=none];
    SP_DA -> CP_DEK [style=dotted, arrowhead=none];
    SP_FG -> CP_DEK [style=dotted, arrowhead=none];

    BTI -> TACSRTA [style=dotted, arrowhead=none];
    SP_DM -> TACSRTA [style=invis]; */
    BTI -> MFTAOA [style=invis];
    CWEB_SOSD -> SGB [style=invis];
  }

  {
    {
      node [shape=box, fillcolor=darkslategray3];
      { rank=same; 1982; WEB [label="WEB"]; }
      { rank=same; 1983; CWEB [label="CWEB"]; }
      WEB -> CWEB
    }

    {
      node [shape=box, fillcolor=lightcyan3];
      { rank=same; 1977; MF77 [label="METAFONT\n[SAIL]"]; }
      { rank=same; 1979; MF79 [label="METAFONT-79\n[Pascal]"]; }
      { rank=same; 1984; MF84 [label="METAFONT-84\n0.0"]; }
      { rank=same; 1986; MF10 [label="METAFONT\n1.0–1.3"]; }
      { rank=same; 1988; MF14 [label="METAFONT\n1.4—1.7"]; }
      { rank=same; 1989; MF18 [label="METAFONT\n1.8—1.9"]; }
      { rank=same; 1990; MF20 [label="METAFONT\n2.0,2.7"]; }
      { rank=same; 1992; MF271 [label="METAFONT\n2.71"]; }
      { rank=same; 1995; MF2718 [label="METAFONT\n2.718"]; }
      { rank=same; 1996; MF27182 [label="METAFONT\n2.7182"]; }
      { rank=same; 2003; MF271828 [label="METAFONT\n2.71828"]; }
      { rank=same; 2008; MF2718281 [label="METAFONT\n2.718281"]; }
      { rank=same; future; MFfuture [label="", fillcolor=white]; }
      MF77 -> MF79 -> MF84 -> MF10 -> MF14 -> MF18 -> MF20 -> MF271 ->
      MF2718 -> MF27182 -> MF271828 -> MF2718281 -> MFfuture;
      /*
      MF10 -> CT_C [style=dotted, arrowhead=none];
      MF10 -> CT_D [style=dotted, arrowhead=none];
      MF10 -> CT_E [style=dotted, arrowhead=none, constraint=false];
      */
    }

    {
      node [shape=box, fillcolor=lightcyan2];
      { rank=same; 1977; TeX77 [label="TEX\n[SAIL]"]; }
      { rank=same; 1978; TeX78 [label="TeX-78\n[Pascal]"]; }
      { rank=same; 1982; TeX82 [label="TeX-82\n0.0"]; }
      { rank=same; 1983; TeX10 [label="TeX\n1.0"]; }
      { rank=same; 1984; TeX11 [label="TeX\n1.1–1.3"]; }
      { rank=same; 1985; TeX14 [label="TeX\n1.4–1.5"]; }
      { rank=same; 1986; TeX20 [label="TeX\n2.0"]; }
      { rank=same; 1987; TeX21 [label="TeX\n2.1–2.9"]; }
      { rank=same; 1988; TeX291 [label="TeX\n2.91–2.95"]; }
      { rank=same; 1989; TeX296 [label="TeX\n2.96–2.993"]; }
      { rank=same; 1990; TeX30 [label="TeX\n3.0–3.1"]; }
      { rank=same; 1991; TeX314 [label="TeX\n3.14"]; }
      { rank=same; 1992; TeX3141 [label="TeX\n3.141"]; }
      { rank=same; 1993; TeX31415 [label="TeX\n3.1415"]; }
      { rank=same; 1995; TeX314159 [label="TeX\n3.14159"]; }
      { rank=same; 2002; TeX3141592 [label="TeX\n3.141592"]; }
      { rank=same; 2008; TeX31415926 [label="TeX\n3.1415926"]; }
      { rank=same; future; TeXfuture [label="", fillcolor=white]; }
      TeX77 -> TeX78 -> TeX82 -> TeX10 -> TeX11 -> TeX14 -> TeX20 ->
      TeX21 -> TeX291 -> TeX296 -> TeX30 -> TeX314 -> TeX3141 -> TeX31415 ->
      TeX314159 -> TeX3141592 -> TeX31415926 ->TeXfuture;
      /*
      TeX20 -> CT_A [style=dotted, arrowhead=none];
      TeX20 -> CT_B [style=dotted, arrowhead=none];
      MF10 -> TeX20 [style=dotted, arrowhead=none, constraint=false];
      */

      /* WEB -> TeX82 [style=invis] */ /* Fine-tuning the positioning */
      CWEB -> CommonTeX [style=dotted];
      WEB -> TeX82 [style=dotted];
      WEB -> MF84 [style=dotted];
    }

    {
      node [shape=box, fillcolor=azure2];
      { rank=same; 1986; CommonTeX [label="Common TeX\n[C]"]; }
      { rank=same; 1987; Web2C21 [label="Web2C\n2.1–2.9\n1.0–1.3"]; }
      { rank=same; 1988; Web2C291 [label="Web2C\n2.91–2.95\n1.4–1.7"]; }
      { rank=same; 1989; Web2C296 [label="Web2C\n2.96–2.993\n1.8–1.9"]; }
      { rank=same; 1990; Web2C30 [label="Web2C\n3.0–3.1\n2.0,2.7"]; }
      { rank=same; 1991; Web2C314 [label="Web2C\n3.14\n2.7"]; }
      { rank=same; 1992; Web2C3141 [label="Web2C\n3.141\n2.71"]; }
      { rank=same; 1993; Web2C31415 [label="Web2C\n3.1415\n2.71"]; }
      { rank=same; 1995; Web2C314159 [label="Web2C\n3.14159\n2.718"]; }
      { rank=same; 1996; Web2C314159_ [label="Web2C\n3.14159\n2.7181"]; }
      { rank=same; 2002; Web2C3141592 [label="Web2C\n3.141592\n2.7182"]; }
      { rank=same; 2003; Web2C3141592_ [label="Web2C\n3.141592\n2.71828"]; }
      { rank=same; 2008; Web2C31415926 [label="Web2C\n3.1415926\n2.71821"]; }
      { rank=same; future; Web2Cfuture [label="", fillcolor=white]; }
      CommonTeX -> Web2C21 -> Web2C291 -> Web2C296 -> Web2C30 -> Web2C314 ->
      Web2C3141 -> Web2C31415 -> Web2C314159 -> Web2C314159_ -> Web2C3141592 ->
      Web2C3141592_ -> Web2C31415926 -> Web2Cfuture;
    }

    {
      node [shape=box, fillcolor=lightcyan3];
      { rank=same; 1990; MLTeX [label="MLTeX"]; }
      { rank=same; 1992; eTeX [label="e-TeX"]; }
      { rank=same; 1992; TeX_XeT [label="TeX-XeT &\nTeX--XeT"]; }
      { rank=same; 1997; eLaTeX [label="e-LaTeX"]; }
      { rank=same; 1997; encTeX [label="encTeX"]; }
      { rank=same; 1991; Omega [label="Omega"]; }
      { rank=same; 2006; Omega2 [label="Omega 2"]; }
      { rank=same; 2004; Aleph [label="Aleph"]; }
      { rank=same; 2003; XeTeX [label="XeTeX"]; }
      { rank=same; future; XeTeXfuture [label=""; fillcolor=white]; }
      { rank=same; 2007; ArabXeTeX [label="ArabXeTeX"]; }
      { rank=same; future; ArabXeTeXfuture [label="", fillcolor=white]; }
      { rank=same; 2004; XeLaTeX [label="XeLaTeX"]; }
      { rank=same; future; XeLaTeXfuture [label="", fillcolor=white]; }
      /* { rank=same; 1990; ConTeXt0 [label="pragmatex"]; } */
      { rank=same; 1996; ConTeXt1 [label="ConTeXt"]; }
      { rank=same; 2000; ConTeXt2 [label="ConTeXt MkII\n(date?)"]; }  /**** IS THIS THE RIGHT DATE??? */
      { rank=same; 2004; ConTeXt3 [label="ConTeXt MkIII\n(date?)"]; }  /**** IS THIS THE RIGHT DATE??? */
      { rank=same; 2007; ConTeXt4 [label="ConTeXt MkIV"]; }
      { rank=same; future; ConTeXtfuture [label=""; fillcolor=white]; }
      { rank=same; 2007; LuaTeX [label="LuaTeX"]; }
      { rank=same; future; LuaTeXfuture [label="", fillcolor=white]; }
      { rank=same; 2010; LuaLaTeX [label="LuaLaTeX"]; }
      { rank=same; future; LuaLaTeXfuture [label="", fillcolor=white]; }
      eTeX -> eLaTeX;
      XeTeX -> XeLaTeX;
      XeTeX -> ArabXeTeX;
      TeX30 -> MLTeX;
      MLTeX -> Omega [style=invis];
      ConTeXt0 -> ConTeXt1 -> ConTeXt2 -> ConTeXt3 -> ConTeXt4;
      XeTeX -> XeTeXfuture;
      XeLaTeX -> XeLaTeXfuture;
      ConTeXt4 -> ConTeXtfuture;
      LuaTeX -> LuaTeXfuture;
      LuaLaTeX -> LuaLaTeXfuture;
      XeTeX -> pdflatex [style=invis]; /* kludge */
      ArabXeTeX -> ArabXeTeXfuture
    }

    {
      node [shape=box, fillcolor=slategray3];
      { rank=same; 1986; dvips [label="dvips"]; }
      { rank=same; 1998; pdftex [label="pdftex"]; }
      { rank=same; 1999; pdfetex [label="pdfetex"]; }
      { rank=same; 2004; pdflatex [label="pdflatex"]; }
      pdfetex -> pdflatex [style=invis];
      pdftex -> LuaTeX;
      LuaTeX -> ConTeXt4;
    }
  }

  {
    node [shape=box, fillcolor=palegoldenrod];
      { rank=same; 1978; PlainTeX78 [label="PlainTeX"]; }
      { rank=same; 1982; PlainTeX82 [label="PlainTeX"]; }
      { rank=same; 1983; AMSTeX [label="AMS-TeX"]; }
      { rank=same; 1990; AMSLaTeX11 [label="AMS-LaTeX 1.1"]; }
      { rank=same; 1995; AMSLaTeX12 [label="AMS-LaTeX 1.2"]; }
      { rank=same; future; AMSLaTeXfuture [label="", fillcolor=white]; }
      { rank=same; 1983; LaTeX1 [label="LaTeX"]; }
      { rank=same; 1984; LaTeX206a [label="LaTeX 2.06a"]; }
      { rank=same; 1985; LaTeX209 [label="LaTeX 2.09"]; }
      { rank=same; 1994; LaTeX2e [label="LaTeX2e"]; }
      { rank=same; future2; LaTeX3 [label="LaTeX3"]; }
      { rank=same; future; LaTeXfuture [label="", fillcolor=white]; }
      LaTeX3 -> LaTeXfuture;
      AMSLaTeX12 -> AMSLaTeXfuture;

    node [shape=box, fillcolor=navajowhite1];
      { rank=same; 1985; BibTeX098f [label="BibTeX 0.98f"]; }
      { rank=same; 1988; BibTeX099c [label="BibTeX 0.99c"]; }
      { rank=same; 2010; BibTeX099d [label="BibTeX 0.99d"]; }
      { rank=same; future; BibTeXfuture [label="", fillcolor=white]; }
      { rank=same; 2006; BibLaTeX [label="BibLaTeX"]; }
      { rank=same; future; BibLaTeXfuture [label="", fillcolor=white]; }
      BibLaTeX -> BibLaTeXfuture;
      BibTeX099d -> BibTeXfuture;
  }

  {
    /*
    node [shape=box, fillcolor=darkseagreen2];
      { rank=same; 1995; LyX070 [label="LyX 0.7.0"]; }
      { rank=same; 2011; LyX200 [label="LyX 2.0.0"]; }
      { rank=same; 1997; emacs [label="emacs 20.1?"]; }
      { rank=same; 1999; TeXmacs [label="TeXmacs"]; }
    */
  }

  {
    node [shape=box, fillcolor=rosybrown2];

    {
      { rank=same; 1985; PCTeX1 [label="PCTeX\n1.0"]; }
      { rank=same; 1990; PCTeX2 [label="PCTeX\n2.0"]; } /* Is this year correct? */
      { rank=same; 1995; PCTeX3 [label="PCTeX\n3.0"]; } /* Is this year correct? */
      { rank=same; 2000; PCTeX4 [label="PCTeX\n4.0"]; } /* Is this year correct? */
      { rank=same; 2005; PCTeX5 [label="PCTeX\n5.0"]; } /* Is this year correct? */
      { rank=same; 2010; PCTeX6 [label="PCTeX\n6.0"]; } /* Is this year correct? */
      { rank=same; future; PCTeXfuture [label="", fillcolor=white]; }
      PCTeX1 -> PCTeX2 -> PCTeX3 -> PCTeX4 -> PCTeX5 -> PCTeX6 -> PCTeXfuture;
    }

    {
      { rank=same; 1992; DirectTeX1 [label="DirectTeX\n1.0"]; }
      { rank=same; 1995; DirectTeX2 [label="DirectTeX\n2.0"]; }
      { rank=same; 1996; DirectTeX21 [label="DirectTeX\n2.1"]; }
      { rank=same; 1997; DirectTeX212 [label="DirectTeX\n2.1.2"]; }
      DirectTeX1 -> DirectTeX2 -> DirectTeX21 -> DirectTeX212;
    }

    {
      { rank=same; 1994; MiKTeX1 [label="MiKTeX\n1.0–1.02"]; }
      { rank=same; 1995; MiKTeX103 [label="MiKTeX\n1.03–1.04"]; }
      { rank=same; 1996; MiKTeX105 [label="MiKTeX\n1.05"]; }
      { rank=same; 1997; MiKTeX106 [label="MiKTeX\n1.06–1.09"]; }
      { rank=same; 1998; MiKTeX110 [label="MiKTeX\n1.10–1.11"]; }
      { rank=same; 1999; MiKTeX120 [label="MiKTeX\n1.20–1.20e"]; }
      { rank=same; 2001; MiKTeX20 [label="MiKTeX\n2.0–2.1"]; }
      { rank=same; 2002; MiKTeX22 [label="MiKTeX\n2.2"]; }
      { rank=same; 2003; MiKTeX23 [label="MiKTeX\n2.3–2.4"]; }
      { rank=same; 2006; MiKTeX25 [label="MiKTeX\n2.5"]; }
      { rank=same; 2007; MiKTeX26 [label="MiKTeX\n2.6–2.7"]; }
      { rank=same; 2009; MiKTeX28 [label="MiKTeX\n2.8"]; }
      { rank=same; 2010; MiKTeX29 [label="MiKTeX\n2.9"]; }
      { rank=same; 2012; MiKTeX30 [label="MiKTeX\n3.0"]; }
      { rank=same; future; MiKTeXfuture [label="", fillcolor=white]; }
      MiKTeX1 -> MiKTeX103 -> MiKTeX105; -> MiKTeX110 -> MiKTeX120 -> MiKTeX20 ->
      MiKTeX22 -> MiKTeX23 -> MiKTeX25 -> MiKTeX26 -> MiKTeX28 -> MiKTeX29 ->
      MiKTeX30 -> MiKTeXfuture;
    }

    {
      { rank=same; 2004; proTeXt10 [label="proTeXt\n1.0"]; }
      { rank=same; 2005; proTeXt12 [label="proTeXt\n1.2/1.3"]; }
      { rank=same; 2007; proTeXt20 [label="proTeXt\n2.0"]; }
      { rank=same; 2008; proTeXt21 [label="proTeXt\n2.1/2.2"]; }
      { rank=same; 2009; proTeXt221 [label="proTeXt\n2.2.1"]; }
      { rank=same; 2010; proTeXt224 [label="proTeXt\n2.2.4"]; }
      { rank=same; 2011; proTeXt30 [label="proTeXt\n3.0"]; }
      { rank=same; 2011; proTeXt30 [label="proTeXt\n3.0"]; }
      { rank=same; future; proTeXtfuture [label="", fillcolor=white]; }
      proTeXt10 -> proTeXt12 -> proTeXt20 -> proTeXt21 -> proTeXt221 -> proTeXt224 -> proTeXt30 -> proTeXtfuture;
      MiKTeX23 -> proTeXt10;
      MiKTeX26 -> proTeXt20;
      MiKTeX28 -> proTeXt221;
      MiKTeX29 -> proTeXt224;
    }

    {
      { rank=same; 1994; teTeX [label="teTeX"]; }
      { rank=same; 2001; teTeX1 [label="teTeX\n1.0"]; }
      { rank=same; 2003; teTeX2 [label="teTeX\n2.0"]; }
      { rank=same; 2005; teTeX3 [label="teTeX\n3.0"]; }
      teTeX -> teTeX1 -> teTeX2 -> teTeX3;
    }

    { 
      rank=same; 1993; forAllTeX [label="4AllTeX"];
    }

    {
      { rank=same; 1996; TeXLive1996 [label="TeXLive"]; }
      { rank=same; 1997; TeXLive1997 [label="TeXLive\n1997"]; }
      { rank=same; 1998; TeXLive1998 [label="TeXLive\n1998"]; }
      { rank=same; 1999; TeXLive1999 [label="TeXLive\n1999"]; }
      { rank=same; 2000; TeXLive2000 [label="TeXLive\n2000"]; }
      { rank=same; 2001; TeXLive2001 [label="TeXLive\n2001"]; }
      { rank=same; 2002; TeXLive2002 [label="TeXLive\n2002"]; }
      { rank=same; 2003; TeXLive2003 [label="TeXLive\n2003"]; }
      { rank=same; 2004; TeXLive2004 [label="TeXLive\n2004"]; }
      { rank=same; 2005; TeXLive2005 [label="TeXLive\n2005"]; }
      { rank=same; 2006; TeXLive2006 [label="TeXLive\n2006"]; }
      { rank=same; 2007; TeXLive2007 [label="TeXLive\n2007"]; }
      { rank=same; 2008; TeXLive2008 [label="TeXLive\n2008"]; }
      { rank=same; 2009; TeXLive2009 [label="TeXLive\n2009"]; }
      { rank=same; 2010; TeXLive2010 [label="TeXLive\n2010"]; }
      { rank=same; 2011; TeXLive2011 [label="TeXLive\n2011"]; }
      { rank=same; 2012; TeXLive2012 [label="TeXLive\n2012"]; }
      { rank=same; future; TeXLivefuture [label="", fillcolor=white]; }
      TeXLive1996 -> TeXLive1997 -> TeXLive1998 -> TeXLive1999 ->
      TeXLive2000 -> TeXLive2001 -> TeXLive2002 -> TeXLive2003 ->
      TeXLive2004 -> TeXLive2005 -> TeXLive2006 -> TeXLive2007 ->
      TeXLive2008 -> TeXLive2009 -> TeXLive2010 -> TeXLive2011 ->
      TeXLive2012 -> TeXLivefuture;
    }

    {
      { rank=same; 2005; MacTeX2005 [label="MacTeX"]; }
      { rank=same; 2006; MacTeX2006 [label="MacTeX\n2006"]; }
      { rank=same; 2007; MacTeX2007 [label="MacTeX\n2007"]; }
      { rank=same; 2008; MacTeX2008 [label="MacTeX\n2008"]; }
      { rank=same; 2009; MacTeX2009 [label="MacTeX\n2009"]; }
      { rank=same; 2010; MacTeX2010 [label="MacTeX\n2010"]; }
      { rank=same; 2011; MacTeX2011 [label="MacTeX\n2011"]; }
      { rank=same; 2012; MacTeX2012 [label="MacTeX\n2012"]; }
      { rank=same; future; MacTeXfuture [label="", fillcolor=white]; }
      MacTeX2005 -> MacTeX2006 -> MacTeX2007 -> MacTeX2008 -> MacTeX2009 ->
      MacTeX2010 -> MacTeX2011 -> MacTeX2012 -> MacTeXfuture;
      TeXLive2005 -> MacTeX2005 [style=solid];
      TeXLive2006 -> MacTeX2006 [style=solid];
      TeXLive2007 -> MacTeX2007 [style=solid];
      TeXLive2008 -> MacTeX2008 [style=solid];
      TeXLive2009 -> MacTeX2009 [style=solid];
      TeXLive2010 -> MacTeX2010 [style=solid];
      TeXLive2011 -> MacTeX2011 [style=solid];
      TeXLive2012 -> MacTeX2012 [style=solid];
    }

    forAllTeX   -> TeXLive1996;
    teTeX       -> TeXLive1996;
  }



  TeX20 -> CommonTeX;
  TeX21 -> Web2C21 [style=solid];
  TeX291 -> Web2C291 [style=solid];
  TeX296 -> Web2C296 [style=solid];
  TeX30 -> Web2C30 [style=solid];
  TeX314 -> Web2C314 [style=solid];
  TeX3141 -> Web2C3141 [style=solid];
  TeX31415 -> Web2C31415 [style=solid];
  TeX314159 -> Web2C314159 [style=solid];
  TeX3141592 -> Web2C3141592 [style=solid];
  TeX31415926 -> Web2C31415926 [style=solid];
  MF10 -> CommonTeX;
  MF14 -> Web2C291 [style=solid];
  MF18 -> Web2C296 [style=solid];
  MF20 -> Web2C30 [style=solid];
  MF271 -> Web2C3141 [style=solid];
  MF2718 -> Web2C314159 [style=solid];

  TeX3141 -> TeX_XeT;

  eTeX -> encTeX;

  TeX314 -> Omega;
  /* eTeX -> Omega [style=invis]; */

  Omega -> Omega2;

  Omega -> Aleph;
  eTeX -> Aleph;  /* how important is this? */

  Omega -> TeX_XeT;

  TeX_XeT -> eTeX;

  eTeX -> ConTeXt1;

  eTeX -> LuaTeX;  /* is this true? what was its ancestor? */
  Aleph -> LuaTeX;  /* is this important? */

  Web2C3141592_ -> XeTeX;

  LuaTeX -> LuaLaTeX;

  Web2C314159 -> pdftex;

  pdftex -> pdfetex;
  eTeX -> pdfetex;

  pdftex -> pdflatex;


  LaTeX1 -> LaTeX206a;

  LaTeX206a -> LaTeX209;

  LaTeX209 -> LaTeX2e;

  LaTeX2e -> LaTeX3;

  LaTeX209 -> BibTeX098f;

  BibTeX098f -> BibTeX099c;

  BibTeX099c -> BibTeX099d;
  LaTeX2e -> BibTeX099d;

  BibTeX099c -> BibLaTeX;
  LaTeX2e -> BibLaTeX;

  PlainTeX78 -> PlainTeX82;

  PlainTeX82 -> AMSTeX;

  AMSTeX -> AMSLaTeX11;
  LaTeX209 -> AMSLaTeX11;

  AMSLaTeX11 -> AMSLaTeX12;
  LaTeX2e -> AMSLaTeX12;


  /*
  LyX070 -> LyX200;
  XeTeX -> LyX200;
  LuaLaTeX -> LyX200;

  emacs -> TeXmacs;
  */
}

