%!PS-Adobe-3.0 EPSF-3.0
%%Creator: MATLAB, The Mathworks, Inc. Version 7.10.0.499 (R2010a). Operating System: Linux 3.2.0-4-amd64 #1 SMP Debian 3.2.39-2 x86_64.
%%Title: figs/example2.eps
%%CreationDate: 03/18/2013  20:02:49
%%DocumentNeededFonts: Helvetica
%%+ Courier
%%DocumentProcessColors: Cyan Magenta Yellow Black
%%LanguageLevel: 2
%%Pages: 1
%%BoundingBox:   370   320   653   496
%%EndComments

%%BeginProlog
% MathWorks dictionary
/MathWorks 160 dict begin
% definition operators
/bdef {bind def} bind def
/ldef {load def} bind def
/xdef {exch def} bdef
/xstore {exch store} bdef
% operator abbreviations
/c  /clip ldef
/cc /concat ldef
/cp /closepath ldef
/gr /grestore ldef
/gs /gsave ldef
/mt /moveto ldef
/np /newpath ldef
/cm /currentmatrix ldef
/sm /setmatrix ldef
/rm /rmoveto ldef
/rl /rlineto ldef
/s {show newpath} bdef
/sc {setcmykcolor} bdef
/sr /setrgbcolor ldef
/sg /setgray ldef
/w /setlinewidth ldef
/j /setlinejoin ldef
/cap /setlinecap ldef
/rc {rectclip} bdef
/rf {rectfill} bdef
% page state control
/pgsv () def
/bpage {/pgsv save def} bdef
/epage {pgsv restore} bdef
/bplot /gsave ldef
/eplot {stroke grestore} bdef
% orientation switch
/portraitMode 0 def /landscapeMode 1 def /rotateMode 2 def
% coordinate system mappings
/dpi2point 0 def
% font control
/FontSize 0 def
/FMS {/FontSize xstore findfont [FontSize 0 0 FontSize neg 0 0]
  makefont setfont} bdef
/reencode {exch dup where {pop load} {pop StandardEncoding} ifelse
  exch dup 3 1 roll findfont dup length dict begin
  { 1 index /FID ne {def}{pop pop} ifelse } forall
  /Encoding exch def currentdict end definefont pop} bdef
/isroman {findfont /CharStrings get /Agrave known} bdef
/FMSR {3 1 roll 1 index dup isroman {reencode} {pop pop} ifelse
  exch FMS} bdef
/csm {1 dpi2point div -1 dpi2point div scale neg translate
 dup landscapeMode eq {pop -90 rotate}
  {rotateMode eq {90 rotate} if} ifelse} bdef
% line types: solid, dotted, dashed, dotdash
/SO { [] 0 setdash } bdef
/DO { [.5 dpi2point mul 4 dpi2point mul] 0 setdash } bdef
/DA { [6 dpi2point mul] 0 setdash } bdef
/DD { [.5 dpi2point mul 4 dpi2point mul 6 dpi2point mul 4
  dpi2point mul] 0 setdash } bdef
% macros for lines and objects
/L {lineto stroke} bdef
/MP {3 1 roll moveto 1 sub {rlineto} repeat} bdef
/AP {{rlineto} repeat} bdef
/PDlw -1 def
/W {/PDlw currentlinewidth def setlinewidth} def
/PP {closepath eofill} bdef
/DP {closepath stroke} bdef
/MR {4 -2 roll moveto dup  0 exch rlineto exch 0 rlineto
  neg 0 exch rlineto closepath} bdef
/FR {MR stroke} bdef
/PR {MR fill} bdef
/L1i {{currentfile picstr readhexstring pop} image} bdef
/tMatrix matrix def
/MakeOval {newpath tMatrix currentmatrix pop translate scale
0 0 1 0 360 arc tMatrix setmatrix} bdef
/FO {MakeOval stroke} bdef
/PO {MakeOval fill} bdef
/PD {currentlinewidth 2 div 0 360 arc fill
   PDlw -1 eq not {PDlw w /PDlw -1 def} if} def
/FA {newpath tMatrix currentmatrix pop translate scale
  0 0 1 5 -2 roll arc tMatrix setmatrix stroke} bdef
/PA {newpath tMatrix currentmatrix pop	translate 0 0 moveto scale
  0 0 1 5 -2 roll arc closepath tMatrix setmatrix fill} bdef
/FAn {newpath tMatrix currentmatrix pop translate scale
  0 0 1 5 -2 roll arcn tMatrix setmatrix stroke} bdef
/PAn {newpath tMatrix currentmatrix pop translate 0 0 moveto scale
  0 0 1 5 -2 roll arcn closepath tMatrix setmatrix fill} bdef
/vradius 0 def /hradius 0 def /lry 0 def
/lrx 0 def /uly 0 def /ulx 0 def /rad 0 def
/MRR {/vradius xdef /hradius xdef /lry xdef /lrx xdef /uly xdef
  /ulx xdef newpath tMatrix currentmatrix pop ulx hradius add uly
  vradius add translate hradius vradius scale 0 0 1 180 270 arc 
  tMatrix setmatrix lrx hradius sub uly vradius add translate
  hradius vradius scale 0 0 1 270 360 arc tMatrix setmatrix
  lrx hradius sub lry vradius sub translate hradius vradius scale
  0 0 1 0 90 arc tMatrix setmatrix ulx hradius add lry vradius sub
  translate hradius vradius scale 0 0 1 90 180 arc tMatrix setmatrix
  closepath} bdef
/FRR {MRR stroke } bdef
/PRR {MRR fill } bdef
/MlrRR {/lry xdef /lrx xdef /uly xdef /ulx xdef /rad lry uly sub 2 div def
  newpath tMatrix currentmatrix pop ulx rad add uly rad add translate
  rad rad scale 0 0 1 90 270 arc tMatrix setmatrix lrx rad sub lry rad
  sub translate rad rad scale 0 0 1 270 90 arc tMatrix setmatrix
  closepath} bdef
/FlrRR {MlrRR stroke } bdef
/PlrRR {MlrRR fill } bdef
/MtbRR {/lry xdef /lrx xdef /uly xdef /ulx xdef /rad lrx ulx sub 2 div def
  newpath tMatrix currentmatrix pop ulx rad add uly rad add translate
  rad rad scale 0 0 1 180 360 arc tMatrix setmatrix lrx rad sub lry rad
  sub translate rad rad scale 0 0 1 0 180 arc tMatrix setmatrix
  closepath} bdef
/FtbRR {MtbRR stroke } bdef
/PtbRR {MtbRR fill } bdef
/stri 6 array def /dtri 6 array def
/smat 6 array def /dmat 6 array def
/tmat1 6 array def /tmat2 6 array def /dif 3 array def
/asub {/ind2 exch def /ind1 exch def dup dup
  ind1 get exch ind2 get sub exch } bdef
/tri_to_matrix {
  2 0 asub 3 1 asub 4 0 asub 5 1 asub
  dup 0 get exch 1 get 7 -1 roll astore } bdef
/compute_transform {
  dmat dtri tri_to_matrix tmat1 invertmatrix 
  smat stri tri_to_matrix tmat2 concatmatrix } bdef
/ds {stri astore pop} bdef
/dt {dtri astore pop} bdef
/db {2 copy /cols xdef /rows xdef mul dup 3 mul string
  currentfile 
  3 index 0 eq {/ASCIIHexDecode filter}
  {/ASCII85Decode filter 3 index 2 eq {/RunLengthDecode filter} if }
  ifelse exch readstring pop
  dup 0 3 index getinterval /rbmap xdef
  dup 2 index dup getinterval /gbmap xdef
  1 index dup 2 mul exch getinterval /bbmap xdef pop pop}bdef
/it {gs np dtri aload pop moveto lineto lineto cp c
  cols rows 8 compute_transform 
  rbmap gbmap bbmap true 3 colorimage gr}bdef
/il {newpath moveto lineto stroke}bdef
currentdict end def
%%EndProlog

%%BeginSetup
MathWorks begin

0 cap

end
%%EndSetup

%%Page: 1 1
%%BeginPageSetup
%%PageBoundingBox:   370   320   653   496
MathWorks begin
bpage
%%EndPageSetup

%%BeginObject: obj1
bplot

/dpi2point 44.4444 def
portraitMode 16444 22044 csm

    0     0 12622  7786 rc
85 dict begin %Colortable dictionary
/c0 { 0.000000 0.000000 0.000000 sr} bdef
/c1 { 1.000000 1.000000 1.000000 sr} bdef
/c2 { 0.900000 0.000000 0.000000 sr} bdef
/c3 { 0.000000 0.820000 0.000000 sr} bdef
/c4 { 0.000000 0.000000 0.800000 sr} bdef
/c5 { 0.910000 0.820000 0.320000 sr} bdef
/c6 { 1.000000 0.260000 0.820000 sr} bdef
/c7 { 0.000000 0.820000 0.820000 sr} bdef
c0
1 j
1 sg
   0    0 12623 7787 rf
22.2222 w
0 5744 9361 0 0 -5744 2062 6328 4 MP
PP
-9361 0 0 5744 9361 0 0 -5744 2062 6328 5 MP stroke
14.8148 w
DO
SO
22.2222 w
0 sg
2062 6328 mt 11423 6328 L
2062  584 mt 11423  584 L
2062 6328 mt 2062  584 L
11423 6328 mt 11423  584 L
2062 6328 mt 11423 6328 L
2062 6328 mt 2062  584 L
2062 6328 mt 2062 6234 L
2062  584 mt 2062  677 L
%%IncludeResource: font Courier
/Courier /ISOLatin1Encoding 533.333 FMSR

1582 6885 mt 
(000) s
4402 6328 mt 4402 6234 L
4402  584 mt 4402  677 L
3922 6885 mt 
(001) s
6742 6328 mt 6742 6234 L
6742  584 mt 6742  677 L
6262 6885 mt 
(002) s
9082 6328 mt 9082 6234 L
9082  584 mt 9082  677 L
8602 6885 mt 
(003) s
11423 6328 mt 11423 6234 L
11423  584 mt 11423  677 L
10943 6885 mt 
(004) s
2062 6328 mt 2155 6328 L
11423 6328 mt 11329 6328 L
 974 6499 mt 
(005) s
2062 4892 mt 2155 4892 L
11423 4892 mt 11329 4892 L
 974 5063 mt 
(006) s
2062 3456 mt 2155 3456 L
11423 3456 mt 11329 3456 L
 974 3627 mt 
(007) s
2062 2020 mt 2155 2020 L
11423 2020 mt 11329 2020 L
 974 2191 mt 
(008) s
2062  584 mt 2155  584 L
11423  584 mt 11329  584 L
 974  755 mt 
(009) s
2062 6328 mt 11423 6328 L
2062  584 mt 11423  584 L
2062 6328 mt 2062  584 L
11423 6328 mt 11423  584 L
gs 2062 584 9362 5745 rc
/c8 { 1.000000 0.000000 0.000000 sr} bdef
c8
234 286 234 282 234 275 234 265 234 253 234 238 234 221 234 202 
234 181 234 157 234 132 234 106 234 79 234 52 234 22 234 -6 
234 -34 234 -63 234 -91 234 -117 234 -143 234 -167 234 -189 234 -210 
234 -229 234 -245 234 -258 234 -270 234 -278 234 -284 234 -287 2062 3456 32 MP stroke
/c9 { 0.000000 0.000000 1.000000 sr} bdef
c9
234 26 234 55 234 82 234 110 234 136 234 160 234 183 234 204 
234 223 234 241 234 254 234 267 234 276 234 282 234 287 234 287 
234 285 234 280 234 272 234 262 234 249 234 234 234 215 234 196 
234 174 234 150 234 125 234 98 234 71 234 43 234 14 2062 584 32 MP stroke
gr

c9
0 sg
%%IncludeResource: font Helvetica
/Helvetica /ISOLatin1Encoding 533.333 FMSR

6261 7696 mt 
(015) s
 714 3954 mt  -90 rotate
(014) s
90 rotate
1988 6517 mt 
( ) s
11350  772 mt 
( ) s
3232 5080 mt 
(013) s
9082 5080 mt 
(012) s
1 sg
0 1764 3253 0 0 -1764 7973 2413 4 MP
PP
-3253 0 0 1764 3253 0 0 -1764 7973 2413 5 MP stroke
14.8148 w
DO
SO
22.2222 w
0 sg
7973 2413 mt 11226 2413 L
7973  649 mt 11226  649 L
7973 2413 mt 7973  649 L
11226 2413 mt 11226  649 L
7973 2413 mt 11226 2413 L
7973 2413 mt 7973  649 L
7973 2413 mt 11226 2413 L
7973  649 mt 11226  649 L
7973 2413 mt 7973  649 L
11226 2413 mt 11226  649 L
9707 1353 mt 
(011) s
gs 7973 649 3254 1765 rc
c8
1333 0 8239 1164 2 MP stroke
gr

c8
0 sg
9707 2157 mt 
(010) s
gs 7973 649 3254 1765 rc
c9
1333 0 8239 1968 2 MP stroke
gr

c9

end %%Color Dict

eplot
%%EndObject

epage
end

showpage

%%Trailer
%%EOF
