%!PS-Adobe-3.0 EPSF-3.0
%%Creator: MATLAB, The Mathworks, Inc. Version 7.10.0.499 (R2010a). Operating System: Linux 3.2.0-4-amd64 #1 SMP Debian 3.2.39-2 x86_64.
%%Title: figs/example4.eps
%%CreationDate: 03/18/2013  20:03:04
%%DocumentNeededFonts: Helvetica
%%+ Courier
%%DocumentProcessColors: Cyan Magenta Yellow Black
%%LanguageLevel: 2
%%Pages: 1
%%BoundingBox:   360   310   663   506
%%EndComments

%%BeginProlog
% MathWorks dictionary
/MathWorks 160 dict begin
% definition operators
/bdef {bind def} bind def
/ldef {load def} bind def
/xdef {exch def} bdef
/xstore {exch store} bdef
% operator abbreviations
/c  /clip ldef
/cc /concat ldef
/cp /closepath ldef
/gr /grestore ldef
/gs /gsave ldef
/mt /moveto ldef
/np /newpath ldef
/cm /currentmatrix ldef
/sm /setmatrix ldef
/rm /rmoveto ldef
/rl /rlineto ldef
/s {show newpath} bdef
/sc {setcmykcolor} bdef
/sr /setrgbcolor ldef
/sg /setgray ldef
/w /setlinewidth ldef
/j /setlinejoin ldef
/cap /setlinecap ldef
/rc {rectclip} bdef
/rf {rectfill} bdef
% page state control
/pgsv () def
/bpage {/pgsv save def} bdef
/epage {pgsv restore} bdef
/bplot /gsave ldef
/eplot {stroke grestore} bdef
% orientation switch
/portraitMode 0 def /landscapeMode 1 def /rotateMode 2 def
% coordinate system mappings
/dpi2point 0 def
% font control
/FontSize 0 def
/FMS {/FontSize xstore findfont [FontSize 0 0 FontSize neg 0 0]
  makefont setfont} bdef
/reencode {exch dup where {pop load} {pop StandardEncoding} ifelse
  exch dup 3 1 roll findfont dup length dict begin
  { 1 index /FID ne {def}{pop pop} ifelse } forall
  /Encoding exch def currentdict end definefont pop} bdef
/isroman {findfont /CharStrings get /Agrave known} bdef
/FMSR {3 1 roll 1 index dup isroman {reencode} {pop pop} ifelse
  exch FMS} bdef
/csm {1 dpi2point div -1 dpi2point div scale neg translate
 dup landscapeMode eq {pop -90 rotate}
  {rotateMode eq {90 rotate} if} ifelse} bdef
% line types: solid, dotted, dashed, dotdash
/SO { [] 0 setdash } bdef
/DO { [.5 dpi2point mul 4 dpi2point mul] 0 setdash } bdef
/DA { [6 dpi2point mul] 0 setdash } bdef
/DD { [.5 dpi2point mul 4 dpi2point mul 6 dpi2point mul 4
  dpi2point mul] 0 setdash } bdef
% macros for lines and objects
/L {lineto stroke} bdef
/MP {3 1 roll moveto 1 sub {rlineto} repeat} bdef
/AP {{rlineto} repeat} bdef
/PDlw -1 def
/W {/PDlw currentlinewidth def setlinewidth} def
/PP {closepath eofill} bdef
/DP {closepath stroke} bdef
/MR {4 -2 roll moveto dup  0 exch rlineto exch 0 rlineto
  neg 0 exch rlineto closepath} bdef
/FR {MR stroke} bdef
/PR {MR fill} bdef
/L1i {{currentfile picstr readhexstring pop} image} bdef
/tMatrix matrix def
/MakeOval {newpath tMatrix currentmatrix pop translate scale
0 0 1 0 360 arc tMatrix setmatrix} bdef
/FO {MakeOval stroke} bdef
/PO {MakeOval fill} bdef
/PD {currentlinewidth 2 div 0 360 arc fill
   PDlw -1 eq not {PDlw w /PDlw -1 def} if} def
/FA {newpath tMatrix currentmatrix pop translate scale
  0 0 1 5 -2 roll arc tMatrix setmatrix stroke} bdef
/PA {newpath tMatrix currentmatrix pop	translate 0 0 moveto scale
  0 0 1 5 -2 roll arc closepath tMatrix setmatrix fill} bdef
/FAn {newpath tMatrix currentmatrix pop translate scale
  0 0 1 5 -2 roll arcn tMatrix setmatrix stroke} bdef
/PAn {newpath tMatrix currentmatrix pop translate 0 0 moveto scale
  0 0 1 5 -2 roll arcn closepath tMatrix setmatrix fill} bdef
/vradius 0 def /hradius 0 def /lry 0 def
/lrx 0 def /uly 0 def /ulx 0 def /rad 0 def
/MRR {/vradius xdef /hradius xdef /lry xdef /lrx xdef /uly xdef
  /ulx xdef newpath tMatrix currentmatrix pop ulx hradius add uly
  vradius add translate hradius vradius scale 0 0 1 180 270 arc 
  tMatrix setmatrix lrx hradius sub uly vradius add translate
  hradius vradius scale 0 0 1 270 360 arc tMatrix setmatrix
  lrx hradius sub lry vradius sub translate hradius vradius scale
  0 0 1 0 90 arc tMatrix setmatrix ulx hradius add lry vradius sub
  translate hradius vradius scale 0 0 1 90 180 arc tMatrix setmatrix
  closepath} bdef
/FRR {MRR stroke } bdef
/PRR {MRR fill } bdef
/MlrRR {/lry xdef /lrx xdef /uly xdef /ulx xdef /rad lry uly sub 2 div def
  newpath tMatrix currentmatrix pop ulx rad add uly rad add translate
  rad rad scale 0 0 1 90 270 arc tMatrix setmatrix lrx rad sub lry rad
  sub translate rad rad scale 0 0 1 270 90 arc tMatrix setmatrix
  closepath} bdef
/FlrRR {MlrRR stroke } bdef
/PlrRR {MlrRR fill } bdef
/MtbRR {/lry xdef /lrx xdef /uly xdef /ulx xdef /rad lrx ulx sub 2 div def
  newpath tMatrix currentmatrix pop ulx rad add uly rad add translate
  rad rad scale 0 0 1 180 360 arc tMatrix setmatrix lrx rad sub lry rad
  sub translate rad rad scale 0 0 1 0 180 arc tMatrix setmatrix
  closepath} bdef
/FtbRR {MtbRR stroke } bdef
/PtbRR {MtbRR fill } bdef
/stri 6 array def /dtri 6 array def
/smat 6 array def /dmat 6 array def
/tmat1 6 array def /tmat2 6 array def /dif 3 array def
/asub {/ind2 exch def /ind1 exch def dup dup
  ind1 get exch ind2 get sub exch } bdef
/tri_to_matrix {
  2 0 asub 3 1 asub 4 0 asub 5 1 asub
  dup 0 get exch 1 get 7 -1 roll astore } bdef
/compute_transform {
  dmat dtri tri_to_matrix tmat1 invertmatrix 
  smat stri tri_to_matrix tmat2 concatmatrix } bdef
/ds {stri astore pop} bdef
/dt {dtri astore pop} bdef
/db {2 copy /cols xdef /rows xdef mul dup 3 mul string
  currentfile 
  3 index 0 eq {/ASCIIHexDecode filter}
  {/ASCII85Decode filter 3 index 2 eq {/RunLengthDecode filter} if }
  ifelse exch readstring pop
  dup 0 3 index getinterval /rbmap xdef
  dup 2 index dup getinterval /gbmap xdef
  1 index dup 2 mul exch getinterval /bbmap xdef pop pop}bdef
/it {gs np dtri aload pop moveto lineto lineto cp c
  cols rows 8 compute_transform 
  rbmap gbmap bbmap true 3 colorimage gr}bdef
/il {newpath moveto lineto stroke}bdef
currentdict end def
%%EndProlog

%%BeginSetup
MathWorks begin

0 cap

end
%%EndSetup

%%Page: 1 1
%%BeginPageSetup
%%PageBoundingBox:   360   310   663   506
MathWorks begin
bpage
%%EndPageSetup

%%BeginObject: obj1
bplot

/dpi2point 44.4444 def
portraitMode 16444 22044 csm

    0     0 12622  7786 rc
85 dict begin %Colortable dictionary
/c0 { 0.000000 0.000000 0.000000 sr} bdef
/c1 { 1.000000 1.000000 1.000000 sr} bdef
/c2 { 0.900000 0.000000 0.000000 sr} bdef
/c3 { 0.000000 0.820000 0.000000 sr} bdef
/c4 { 0.000000 0.000000 0.800000 sr} bdef
/c5 { 0.910000 0.820000 0.320000 sr} bdef
/c6 { 1.000000 0.260000 0.820000 sr} bdef
/c7 { 0.000000 0.820000 0.820000 sr} bdef
c0
1 j
1 sg
   0    0 12623 7787 rf
22.2222 w
0 5958 9645 0 0 -5958 1778 6542 4 MP
PP
-9645 0 0 5958 9645 0 0 -5958 1778 6542 5 MP stroke
14.8148 w
DO
SO
22.2222 w
0 sg
1778 6542 mt 11423 6542 L
1778  584 mt 11423  584 L
1778 6542 mt 1778  584 L
11423 6542 mt 11423  584 L
1778 6542 mt 11423 6542 L
1778 6542 mt 1778  584 L
1778 6542 mt 1778 6445 L
1778  584 mt 1778  680 L
%%IncludeResource: font Courier
/Courier /ISOLatin1Encoding 533.333 FMSR

1298 7099 mt 
(000) s
6600 6542 mt 6600 6445 L
6600  584 mt 6600  680 L
6120 7099 mt 
(001) s
11423 6542 mt 11423 6445 L
11423  584 mt 11423  680 L
10943 7099 mt 
(002) s
1778 6542 mt 1874 6542 L
11423 6542 mt 11326 6542 L
 690 6713 mt 
(003) s
1778 5052 mt 1874 5052 L
11423 5052 mt 11326 5052 L
 690 5223 mt 
(004) s
1778 3563 mt 1874 3563 L
11423 3563 mt 11326 3563 L
 690 3734 mt 
(005) s
1778 2073 mt 1874 2073 L
11423 2073 mt 11326 2073 L
 690 2244 mt 
(006) s
1778  584 mt 1874  584 L
11423  584 mt 11326  584 L
 690  755 mt 
(007) s
1778 6542 mt 11423 6542 L
1778  584 mt 11423  584 L
1778 6542 mt 1778  584 L
11423 6542 mt 11423  584 L
gs 1778 584 9646 5959 rc
/c8 { 1.000000 0.000000 0.000000 sr} bdef
c8
307 297 307 292 307 285 307 276 307 262 307 247 307 230 307 209 
307 187 307 163 307 137 307 111 307 82 307 53 307 23 307 -6 
307 -36 307 -65 307 -94 307 -122 307 -148 307 -173 307 -196 307 -218 
307 -237 307 -254 307 -268 307 -280 307 -289 307 -294 307 -298 1778 3563 32 MP stroke
/c9 { 0.000000 0.000000 1.000000 sr} bdef
c9
307 27 307 57 307 86 307 113 307 141 307 166 307 190 307 212 
307 231 307 250 307 264 307 276 307 287 307 293 307 297 307 297 
307 296 307 290 307 283 307 272 307 258 307 242 307 224 307 203 
307 180 307 156 307 129 307 102 307 74 307 45 307 14 1778 584 32 MP stroke
gr

c9
0 sg
%%IncludeResource: font Helvetica
/Helvetica /ISOLatin1Encoding 533.333 FMSR

6119 7910 mt 
(011) s
 430 4061 mt  -90 rotate
(010) s
90 rotate
1 sg
0 1764 3182 0 0 -1764 8062 2573 4 MP
PP
-3182 0 0 1764 3182 0 0 -1764 8062 2573 5 MP stroke
14.8148 w
DO
SO
22.2222 w
0 sg
8062 2573 mt 11244 2573 L
8062  809 mt 11244  809 L
8062 2573 mt 8062  809 L
11244 2573 mt 11244  809 L
8062 2573 mt 11244 2573 L
8062 2573 mt 8062  809 L
8062 2573 mt 11244 2573 L
8062  809 mt 11244  809 L
8062 2573 mt 8062  809 L
11244 2573 mt 11244  809 L
9796 1513 mt 
(009) s
gs 8062 809 3183 1765 rc
c8
1333 0 8328 1324 2 MP stroke
gr

c8
0 sg
9796 2317 mt 
(008) s
gs 8062 809 3183 1765 rc
c9
1333 0 8328 2128 2 MP stroke
gr

c9

end %%Color Dict

eplot
%%EndObject

epage
end

showpage

%%Trailer
%%EOF
