%!PS-Adobe-3.0 EPSF-3.0
%%Creator: MATLAB, The Mathworks, Inc. Version 7.10.0.499 (R2010a). Operating System: Linux 3.2.0-4-amd64 #1 SMP Debian 3.2.39-2 x86_64.
%%Title: figs/example3.eps
%%CreationDate: 03/18/2013  20:02:55
%%DocumentNeededFonts: Helvetica
%%+ Courier
%%+ Helvetica-Oblique
%%DocumentProcessColors: Cyan Magenta Yellow Black
%%LanguageLevel: 2
%%Pages: 1
%%BoundingBox:   303   287   719   518
%%EndComments

%%BeginProlog
% MathWorks dictionary
/MathWorks 160 dict begin
% definition operators
/bdef {bind def} bind def
/ldef {load def} bind def
/xdef {exch def} bdef
/xstore {exch store} bdef
% operator abbreviations
/c  /clip ldef
/cc /concat ldef
/cp /closepath ldef
/gr /grestore ldef
/gs /gsave ldef
/mt /moveto ldef
/np /newpath ldef
/cm /currentmatrix ldef
/sm /setmatrix ldef
/rm /rmoveto ldef
/rl /rlineto ldef
/s {show newpath} bdef
/sc {setcmykcolor} bdef
/sr /setrgbcolor ldef
/sg /setgray ldef
/w /setlinewidth ldef
/j /setlinejoin ldef
/cap /setlinecap ldef
/rc {rectclip} bdef
/rf {rectfill} bdef
% page state control
/pgsv () def
/bpage {/pgsv save def} bdef
/epage {pgsv restore} bdef
/bplot /gsave ldef
/eplot {stroke grestore} bdef
% orientation switch
/portraitMode 0 def /landscapeMode 1 def /rotateMode 2 def
% coordinate system mappings
/dpi2point 0 def
% font control
/FontSize 0 def
/FMS {/FontSize xstore findfont [FontSize 0 0 FontSize neg 0 0]
  makefont setfont} bdef
/reencode {exch dup where {pop load} {pop StandardEncoding} ifelse
  exch dup 3 1 roll findfont dup length dict begin
  { 1 index /FID ne {def}{pop pop} ifelse } forall
  /Encoding exch def currentdict end definefont pop} bdef
/isroman {findfont /CharStrings get /Agrave known} bdef
/FMSR {3 1 roll 1 index dup isroman {reencode} {pop pop} ifelse
  exch FMS} bdef
/csm {1 dpi2point div -1 dpi2point div scale neg translate
 dup landscapeMode eq {pop -90 rotate}
  {rotateMode eq {90 rotate} if} ifelse} bdef
% line types: solid, dotted, dashed, dotdash
/SO { [] 0 setdash } bdef
/DO { [.5 dpi2point mul 4 dpi2point mul] 0 setdash } bdef
/DA { [6 dpi2point mul] 0 setdash } bdef
/DD { [.5 dpi2point mul 4 dpi2point mul 6 dpi2point mul 4
  dpi2point mul] 0 setdash } bdef
% macros for lines and objects
/L {lineto stroke} bdef
/MP {3 1 roll moveto 1 sub {rlineto} repeat} bdef
/AP {{rlineto} repeat} bdef
/PDlw -1 def
/W {/PDlw currentlinewidth def setlinewidth} def
/PP {closepath eofill} bdef
/DP {closepath stroke} bdef
/MR {4 -2 roll moveto dup  0 exch rlineto exch 0 rlineto
  neg 0 exch rlineto closepath} bdef
/FR {MR stroke} bdef
/PR {MR fill} bdef
/L1i {{currentfile picstr readhexstring pop} image} bdef
/tMatrix matrix def
/MakeOval {newpath tMatrix currentmatrix pop translate scale
0 0 1 0 360 arc tMatrix setmatrix} bdef
/FO {MakeOval stroke} bdef
/PO {MakeOval fill} bdef
/PD {currentlinewidth 2 div 0 360 arc fill
   PDlw -1 eq not {PDlw w /PDlw -1 def} if} def
/FA {newpath tMatrix currentmatrix pop translate scale
  0 0 1 5 -2 roll arc tMatrix setmatrix stroke} bdef
/PA {newpath tMatrix currentmatrix pop	translate 0 0 moveto scale
  0 0 1 5 -2 roll arc closepath tMatrix setmatrix fill} bdef
/FAn {newpath tMatrix currentmatrix pop translate scale
  0 0 1 5 -2 roll arcn tMatrix setmatrix stroke} bdef
/PAn {newpath tMatrix currentmatrix pop translate 0 0 moveto scale
  0 0 1 5 -2 roll arcn closepath tMatrix setmatrix fill} bdef
/vradius 0 def /hradius 0 def /lry 0 def
/lrx 0 def /uly 0 def /ulx 0 def /rad 0 def
/MRR {/vradius xdef /hradius xdef /lry xdef /lrx xdef /uly xdef
  /ulx xdef newpath tMatrix currentmatrix pop ulx hradius add uly
  vradius add translate hradius vradius scale 0 0 1 180 270 arc 
  tMatrix setmatrix lrx hradius sub uly vradius add translate
  hradius vradius scale 0 0 1 270 360 arc tMatrix setmatrix
  lrx hradius sub lry vradius sub translate hradius vradius scale
  0 0 1 0 90 arc tMatrix setmatrix ulx hradius add lry vradius sub
  translate hradius vradius scale 0 0 1 90 180 arc tMatrix setmatrix
  closepath} bdef
/FRR {MRR stroke } bdef
/PRR {MRR fill } bdef
/MlrRR {/lry xdef /lrx xdef /uly xdef /ulx xdef /rad lry uly sub 2 div def
  newpath tMatrix currentmatrix pop ulx rad add uly rad add translate
  rad rad scale 0 0 1 90 270 arc tMatrix setmatrix lrx rad sub lry rad
  sub translate rad rad scale 0 0 1 270 90 arc tMatrix setmatrix
  closepath} bdef
/FlrRR {MlrRR stroke } bdef
/PlrRR {MlrRR fill } bdef
/MtbRR {/lry xdef /lrx xdef /uly xdef /ulx xdef /rad lrx ulx sub 2 div def
  newpath tMatrix currentmatrix pop ulx rad add uly rad add translate
  rad rad scale 0 0 1 180 360 arc tMatrix setmatrix lrx rad sub lry rad
  sub translate rad rad scale 0 0 1 0 180 arc tMatrix setmatrix
  closepath} bdef
/FtbRR {MtbRR stroke } bdef
/PtbRR {MtbRR fill } bdef
/stri 6 array def /dtri 6 array def
/smat 6 array def /dmat 6 array def
/tmat1 6 array def /tmat2 6 array def /dif 3 array def
/asub {/ind2 exch def /ind1 exch def dup dup
  ind1 get exch ind2 get sub exch } bdef
/tri_to_matrix {
  2 0 asub 3 1 asub 4 0 asub 5 1 asub
  dup 0 get exch 1 get 7 -1 roll astore } bdef
/compute_transform {
  dmat dtri tri_to_matrix tmat1 invertmatrix 
  smat stri tri_to_matrix tmat2 concatmatrix } bdef
/ds {stri astore pop} bdef
/dt {dtri astore pop} bdef
/db {2 copy /cols xdef /rows xdef mul dup 3 mul string
  currentfile 
  3 index 0 eq {/ASCIIHexDecode filter}
  {/ASCII85Decode filter 3 index 2 eq {/RunLengthDecode filter} if }
  ifelse exch readstring pop
  dup 0 3 index getinterval /rbmap xdef
  dup 2 index dup getinterval /gbmap xdef
  1 index dup 2 mul exch getinterval /bbmap xdef pop pop}bdef
/it {gs np dtri aload pop moveto lineto lineto cp c
  cols rows 8 compute_transform 
  rbmap gbmap bbmap true 3 colorimage gr}bdef
/il {newpath moveto lineto stroke}bdef
currentdict end def
%%EndProlog

%%BeginSetup
MathWorks begin

0 cap

end
%%EndSetup

%%Page: 1 1
%%BeginPageSetup
%%PageBoundingBox:   303   287   719   518
MathWorks begin
bpage
%%EndPageSetup

%%BeginObject: obj1
bplot

/dpi2point 44.4444 def
portraitMode 13911 22577 csm

    0     0 17636  8818 rc
85 dict begin %Colortable dictionary
/c0 { 0.000000 0.000000 0.000000 sr} bdef
/c1 { 1.000000 1.000000 1.000000 sr} bdef
/c2 { 0.900000 0.000000 0.000000 sr} bdef
/c3 { 0.000000 0.820000 0.000000 sr} bdef
/c4 { 0.000000 0.000000 0.800000 sr} bdef
/c5 { 0.910000 0.820000 0.320000 sr} bdef
/c6 { 1.000000 0.260000 0.820000 sr} bdef
/c7 { 0.000000 0.820000 0.820000 sr} bdef
c0
1 j
1 sg
   0    0 17637 8819 rf
22.2222 w
0 6913 12796 0 0 -6913 3165 7574 4 MP
PP
-12796 0 0 6913 12796 0 0 -6913 3165 7574 5 MP stroke
14.8148 w
DO
SO
22.2222 w
0 sg
3165 7574 mt 15961 7574 L
3165  661 mt 15961  661 L
3165 7574 mt 3165  661 L
15961 7574 mt 15961  661 L
3165 7574 mt 15961 7574 L
3165 7574 mt 3165  661 L
3165 7574 mt 3165 7446 L
3165  661 mt 3165  788 L
%%IncludeResource: font Courier
/Courier /ISOLatin1Encoding 533.333 FMSR

2685 8131 mt 
(000) s
4993 7574 mt 4993 7446 L
4993  661 mt 4993  788 L
4513 8131 mt 
(001) s
6821 7574 mt 6821 7446 L
6821  661 mt 6821  788 L
6341 8131 mt 
(002) s
8649 7574 mt 8649 7446 L
8649  661 mt 8649  788 L
8169 8131 mt 
(003) s
10477 7574 mt 10477 7446 L
10477  661 mt 10477  788 L
9997 8131 mt 
(004) s
12305 7574 mt 12305 7446 L
12305  661 mt 12305  788 L
11825 8131 mt 
(005) s
14133 7574 mt 14133 7446 L
14133  661 mt 14133  788 L
13653 8131 mt 
(006) s
15961 7574 mt 15961 7446 L
15961  661 mt 15961  788 L
15481 8131 mt 
(007) s
3165 7574 mt 3292 7574 L
15961 7574 mt 15833 7574 L
2077 7745 mt 
(008) s
3165 5845 mt 3292 5845 L
15961 5845 mt 15833 5845 L
2077 6016 mt 
(009) s
3165 4117 mt 3292 4117 L
15961 4117 mt 15833 4117 L
2077 4288 mt 
(010) s
3165 2389 mt 3292 2389 L
15961 2389 mt 15833 2389 L
2077 2560 mt 
(011) s
3165  661 mt 3292  661 L
15961  661 mt 15833  661 L
2077  832 mt 
(012) s
3165 7574 mt 15961 7574 L
3165  661 mt 15961  661 L
3165 7574 mt 3165  661 L
15961 7574 mt 15961  661 L
gs 3165 661 12797 6914 rc
/c8 { 1.000000 0.000000 0.000000 sr} bdef
c8
365 344 366 339 366 331 365 319 366 305 365 287 366 266 366 243 
365 217 366 189 365 159 366 128 366 95 365 62 366 27 365 -7 
366 -42 366 -75 365 -109 366 -142 365 -171 366 -201 366 -228 365 -253 
366 -275 365 -295 366 -311 366 -325 365 -334 366 -342 365 -345 3165 4117 32 MP stroke
/c9 { 0.000000 0.000000 1.000000 sr} bdef
c9
365 32 366 66 366 99 365 132 366 163 365 193 366 220 366 246 
365 269 366 289 365 307 366 321 366 332 365 340 366 344 365 346 
366 342 366 338 365 327 366 316 365 300 366 281 366 259 365 236 
366 209 365 180 366 151 366 118 365 86 366 51 365 17 3165 661 32 MP stroke
gr

c9
0 sg
%%IncludeResource: font Helvetica
/Helvetica /ISOLatin1Encoding 533.333 FMSR

9100 8946 mt 
(019) s
1818 4615 mt  -90 rotate
(018) s
90 rotate
12493 5845 mt  -90 rotate
(017) s
90 rotate
c8
%%IncludeResource: font Helvetica-Oblique
/Helvetica-Oblique /ISOLatin1Encoding 533.333 FMSR

4548 6033 mt 
(016) s
0 sg
%%IncludeResource: font Helvetica
/Helvetica /ISOLatin1Encoding 711.111 FMSR

6821 6096 mt 
(015) s
1 sg
0 1764 3182 0 0 -1764 12614 2680 4 MP
PP
-3182 0 0 1764 3182 0 0 -1764 12614 2680 5 MP stroke
14.8148 w
DO
SO
22.2222 w
0 sg
12614 2680 mt 15796 2680 L
12614  916 mt 15796  916 L
12614 2680 mt 12614  916 L
15796 2680 mt 15796  916 L
12614 2680 mt 15796 2680 L
12614 2680 mt 12614  916 L
12614 2680 mt 15796 2680 L
12614  916 mt 15796  916 L
12614 2680 mt 12614  916 L
15796 2680 mt 15796  916 L
%%IncludeResource: font Helvetica
/Helvetica /ISOLatin1Encoding 533.333 FMSR

14348 1620 mt 
(014) s
gs 12614 916 3183 1765 rc
c8
1333 0 12880 1431 2 MP stroke
gr

c8
0 sg
14348 2424 mt 
(013) s
gs 12614 916 3183 1765 rc
c9
1333 0 12880 2235 2 MP stroke
gr

c9

end %%Color Dict

eplot
%%EndObject

epage
end

showpage

%%Trailer
%%EOF
