<?xml version="1.0" encoding="UTF-8" standalone="no"?>
<!-- Created with Inkscape (http://www.inkscape.org/) -->

<svg
   xmlns:dc="http://purl.org/dc/elements/1.1/"
   xmlns:cc="http://creativecommons.org/ns#"
   xmlns:rdf="http://www.w3.org/1999/02/22-rdf-syntax-ns#"
   xmlns:svg="http://www.w3.org/2000/svg"
   xmlns="http://www.w3.org/2000/svg"
   xmlns:xlink="http://www.w3.org/1999/xlink"
   xmlns:sodipodi="http://sodipodi.sourceforge.net/DTD/sodipodi-0.dtd"
   xmlns:inkscape="http://www.inkscape.org/namespaces/inkscape"
   width="283.46457"
   height="230.31496"
   id="svg2"
   version="1.1"
   inkscape:version="0.48.3.1 r9886"
   sodipodi:docname="AharonovBohmEffect.svg">
  <sodipodi:namedview
     id="base"
     pagecolor="#ffffff"
     bordercolor="#666666"
     borderopacity="1.0"
     inkscape:pageopacity="0.0"
     inkscape:pageshadow="2"
     inkscape:zoom="1.2926234"
     inkscape:cx="171.95238"
     inkscape:cy="127.04762"
     inkscape:document-units="mm"
     inkscape:current-layer="layer1"
     showgrid="false"
     fit-margin-top="10"
     fit-margin-left="10"
     fit-margin-right="10"
     fit-margin-bottom="10"
     inkscape:window-width="1366"
     inkscape:window-height="719"
     inkscape:window-x="0"
     inkscape:window-y="19"
     inkscape:window-maximized="0"
     units="mm" />
  <defs
     id="defs4">
    <marker
       style="overflow:visible"
       id="Arrow2Mstart"
       refX="0"
       refY="0"
       orient="auto"
       inkscape:stockid="Arrow2Mstart">
      <path
         inkscape:connector-curvature="0"
         transform="scale(0.6,0.6)"
         d="M 8.7185878,4.0337352 -2.2072895,0.01601326 8.7185884,-4.0017078 c -1.7454984,2.3720609 -1.7354408,5.6174519 -6e-7,8.035443 z"
         style="font-size:12px;fill-rule:evenodd;stroke-width:0.625;stroke-linejoin:round"
         id="path4006" />
    </marker>
    <marker
       style="overflow:visible"
       id="Arrow1Send"
       refX="0"
       refY="0"
       orient="auto"
       inkscape:stockid="Arrow1Send">
      <path
         inkscape:connector-curvature="0"
         transform="matrix(-0.2,0,0,-0.2,-1.2,0)"
         style="fill-rule:evenodd;stroke:#000000;stroke-width:1pt;marker-start:none"
         d="M 0,0 5,-5 -12.5,0 5,5 0,0 z"
         id="path3997" />
    </marker>
    <marker
       style="overflow:visible"
       id="Arrow1Mend"
       refX="0"
       refY="0"
       orient="auto"
       inkscape:stockid="Arrow1Mend">
      <path
         inkscape:connector-curvature="0"
         transform="matrix(-0.4,0,0,-0.4,-4,0)"
         style="fill-rule:evenodd;stroke:#000000;stroke-width:1pt;marker-start:none"
         d="M 0,0 5,-5 -12.5,0 5,5 0,0 z"
         id="path3991" />
    </marker>
    <marker
       style="overflow:visible"
       id="Arrow1Lend"
       refX="0"
       refY="0"
       orient="auto"
       inkscape:stockid="Arrow1Lend">
      <path
         inkscape:connector-curvature="0"
         transform="matrix(-0.8,0,0,-0.8,-10,0)"
         style="fill-rule:evenodd;stroke:#000000;stroke-width:1pt;marker-start:none"
         d="M 0,0 5,-5 -12.5,0 5,5 0,0 z"
         id="path3985" />
    </marker>
    <linearGradient
       id="linearGradient3967">
      <stop
         id="stop3969"
         offset="0"
         style="stop-color:#76b9ff;stop-opacity:1;" />
      <stop
         id="stop3971"
         offset="1"
         style="stop-color:#76b9ff;stop-opacity:0;" />
    </linearGradient>
    <linearGradient
       id="linearGradient3951"
       inkscape:collect="always">
      <stop
         id="stop3953"
         offset="0"
         style="stop-color:#99ccff;stop-opacity:1;" />
      <stop
         id="stop3955"
         offset="1"
         style="stop-color:#99ccff;stop-opacity:0;" />
    </linearGradient>
    <linearGradient
       gradientUnits="userSpaceOnUse"
       y2="379.27255"
       x2="393.78821"
       y1="379.27255"
       x1="230.45525"
       id="linearGradient3957"
       xlink:href="#linearGradient3951"
       inkscape:collect="always" />
    <linearGradient
       gradientUnits="userSpaceOnUse"
       y2="281.70309"
       x2="290.85623"
       y1="281.70309"
       x1="331.14374"
       id="linearGradient3973-9"
       xlink:href="#linearGradient3967-5"
       inkscape:collect="always" />
    <linearGradient
       id="linearGradient3967-5"
       inkscape:collect="always">
      <stop
         id="stop3969-6"
         offset="0"
         style="stop-color:#76b9ff;stop-opacity:1;" />
      <stop
         id="stop3971-5"
         offset="1"
         style="stop-color:#76b9ff;stop-opacity:0;" />
    </linearGradient>
    <marker
       style="overflow:visible"
       id="Arrow1Send-9"
       refX="0"
       refY="0"
       orient="auto"
       inkscape:stockid="Arrow1Send">
      <path
         transform="matrix(-0.2,0,0,-0.2,-1.2,0)"
         style="fill-rule:evenodd;stroke:#000000;stroke-width:1pt;marker-start:none"
         d="M 0,0 5,-5 -12.5,0 5,5 0,0 z"
         id="path3997-1"
         inkscape:connector-curvature="0" />
    </marker>
    <linearGradient
       y2="379.27255"
       x2="393.78821"
       y1="379.27255"
       x1="230.45525"
       gradientUnits="userSpaceOnUse"
       id="linearGradient5310"
       xlink:href="#linearGradient3951"
       inkscape:collect="always" />
    <marker
       style="overflow:visible"
       id="Arrow1Sendy"
       refX="0"
       refY="0"
       orient="auto"
       inkscape:stockid="Arrow1Sendy">
      <path
         inkscape:connector-curvature="0"
         transform="matrix(-0.2,0,0,-0.2,-1.2,0)"
         style="fill:#b50000;fill-rule:evenodd;stroke:#b50000;stroke-width:1pt;marker-start:none"
         d="M 0,0 5,-5 -12.5,0 5,5 0,0 z"
         id="path5380" />
    </marker>
    <marker
       style="overflow:visible"
       id="Arrow1Sendy-2"
       refX="0"
       refY="0"
       orient="auto"
       inkscape:stockid="Arrow1Sendy">
      <path
         inkscape:connector-curvature="0"
         transform="matrix(-0.2,0,0,-0.2,-1.2,0)"
         style="fill:#b50000;fill-rule:evenodd;stroke:#b50000;stroke-width:1pt;marker-start:none"
         d="M 0,0 5,-5 -12.5,0 5,5 0,0 z"
         id="path5380-7" />
    </marker>
    <marker
       style="overflow:visible"
       id="Arrow1Sendy-7"
       refX="0"
       refY="0"
       orient="auto"
       inkscape:stockid="Arrow1Sendy">
      <path
         inkscape:connector-curvature="0"
         transform="matrix(-0.2,0,0,-0.2,-1.2,0)"
         style="fill:#b50000;fill-rule:evenodd;stroke:#b50000;stroke-width:1pt;marker-start:none"
         d="M 0,0 5,-5 -12.5,0 5,5 0,0 z"
         id="path5380-4" />
    </marker>
    <linearGradient
       gradientTransform="matrix(1,0,0,0.88594487,-1,36.269638)"
       y2="281.70309"
       x2="290.85623"
       y1="281.70309"
       x1="331.14374"
       gradientUnits="userSpaceOnUse"
       id="linearGradient5319-6"
       xlink:href="#linearGradient3967-53"
       inkscape:collect="always" />
    <linearGradient
       id="linearGradient3967-53">
      <stop
         id="stop3969-0"
         offset="0"
         style="stop-color:#76b9ff;stop-opacity:1;" />
      <stop
         id="stop3971-6"
         offset="1"
         style="stop-color:#76b9ff;stop-opacity:0;" />
    </linearGradient>
    <linearGradient
       inkscape:collect="always"
       xlink:href="#linearGradient3967-53"
       id="linearGradient3230"
       gradientUnits="userSpaceOnUse"
       gradientTransform="matrix(0.48675944,0,0,0.43124203,62.549637,345.48498)"
       x1="331.14374"
       y1="281.70309"
       x2="290.85623"
       y2="281.70309" />
  </defs>
  <metadata
     id="metadata7">
    <rdf:RDF>
      <cc:Work
         rdf:about="">
        <dc:format>image/svg+xml</dc:format>
        <dc:type
           rdf:resource="http://purl.org/dc/dcmitype/StillImage" />
      </cc:Work>
    </rdf:RDF>
  </metadata>
  <g
     transform="translate(-84.974082,-402.41691)"
     id="layer1"
     inkscape:groupmode="layer"
     inkscape:label="Layer 1">
    <path
       sodipodi:nodetypes="csc"
       id="path2985-2-2"
       d="m 203.9322,612.90763 c 0,-5.30722 9.70728,-9.60959 21.68185,-9.60959 11.97455,0 21.68185,4.30237 21.68185,9.60959"
       style="fill:none;stroke:#000000;stroke-width:5;stroke-linecap:round;stroke-linejoin:round;stroke-miterlimit:3.97188687;stroke-opacity:1;stroke-dasharray:4.99999995, 9.9999999;stroke-dashoffset:0"
       inkscape:connector-curvature="0" />
    <path
       inkscape:connector-curvature="0"
       id="path2985-1"
       d="m 247.2959,466.96719 c 0,5.30722 -9.7073,9.60958 -21.68185,9.60958 -11.97456,0 -21.68186,-4.30236 -21.68186,-9.60958 0,-5.30723 9.7073,-9.60959 21.68186,-9.60959 11.97455,0 21.68185,4.30236 21.68185,9.60959 z"
       style="fill:url(#linearGradient3230);fill-opacity:1;stroke:none" />
    <g
       style="stroke-width:4.79015112;stroke-miterlimit:3.98945761;stroke-dasharray:none"
       transform="matrix(0.38106268,0,0,0.38106268,93.5252,366.69596)"
       id="g5265">
      <path
         inkscape:connector-curvature="0"
         style="fill:none;stroke:#000000;stroke-width:9.84090042;stroke-linecap:round;stroke-linejoin:miter;stroke-miterlimit:3.98945761;stroke-opacity:1;stroke-dasharray:none;marker-mid:url(#Arrow2Mstart)"
         d="M 655,473.36218 C 586.38284,421.5667 583.45844,353.97201 522,352.36219 c -42.03107,-1.10094 -64.7181,8.01543 -98,18"
         id="path5263"
         sodipodi:nodetypes="csc" />
      <path
         inkscape:connector-curvature="0"
         style="fill:none;stroke:#000000;stroke-width:9.84090042;stroke-linecap:round;stroke-linejoin:miter;stroke-miterlimit:3.98945761;stroke-opacity:1;stroke-dasharray:none;marker-mid:url(#Arrow2Mstart)"
         d="M 424,370.36219 C 359.25116,389.78684 284.45193,362.11159 213.93611,354.99522 157.41073,349.29075 103.63769,356.79661 60,412.36219"
         id="path4875" />
    </g>
    <path
       inkscape:connector-curvature="0"
       id="path2985"
       d="m 203.93219,466.96719 c 0,-5.30723 9.7073,-9.60959 21.68186,-9.60959 11.97455,0 21.68185,4.30236 21.68185,9.60959"
       style="fill:none;stroke:#000000;stroke-width:5;stroke-linecap:round;stroke-linejoin:round;stroke-miterlimit:3.97188687;stroke-opacity:1;stroke-dasharray:none"
       sodipodi:nodetypes="csc" />
    <path
       inkscape:connector-curvature="0"
       id="path3977-6"
       d="m 236.58807,627.24849 0,-207.73695"
       style="fill:none;stroke:#b50000;stroke-width:7.08661413;stroke-linecap:round;stroke-linejoin:miter;stroke-miterlimit:4;stroke-opacity:1;stroke-dasharray:none;marker-end:url(#Arrow1Sendy)" />
    <path
       inkscape:connector-curvature="0"
       id="path3977"
       d="m 215.121,627.24849 0,-207.73695"
       style="fill:none;stroke:#b50000;stroke-width:7.08661413;stroke-linecap:round;stroke-linejoin:miter;stroke-miterlimit:4;stroke-opacity:1;stroke-dasharray:none;marker-end:url(#Arrow1Sendy)" />
    <g
       style="opacity:0.9;fill:#76b9ff;fill-opacity:1;stroke:none"
       id="g3902-4"
       transform="matrix(0.48675944,0,0,0.97062524,91.75514,176.60668)">
      <path
         sodipodi:nodetypes="ccsccc"
         inkscape:connector-curvature="0"
         d="m 319.54,299.13963 0.002,150.40098 c 0.002,5.43228 -19.94107,9.86484 -44.54163,9.86484 -24.60057,0 -44.54327,-4.43256 -44.54413,-9.86484 l -0.001,-150.40098 c 23.68934,16.80466 89.08476,8.88586 89.08476,0 z"
         style="fill:#76b9ff;fill-opacity:1;stroke:none"
         id="path3775-2-8" />
    </g>
    <path
       id="path3775-2"
       style="fill:none;stroke:#000000;stroke-width:5;stroke-linecap:round;stroke-linejoin:miter;stroke-miterlimit:4;stroke-opacity:1;stroke-dasharray:none"
       d="m 203.93195,612.94214 -4.8e-4,-145.98299 m 43.36382,145.98299 c 9.7e-4,5.27271 -9.70651,9.57506 -21.68106,9.57506 -11.97456,0 -21.68186,-4.30235 -21.68228,-9.57506 m 43.36236,-145.98299 9.8e-4,145.98299"
       inkscape:connector-curvature="0" />
    <path
       sodipodi:nodetypes="csc"
       inkscape:connector-curvature="0"
       id="path2985-9"
       d="m 247.2959,466.96719 c 0,5.30722 -9.7073,9.60958 -21.68185,9.60958 -11.97456,0 -21.68186,-4.30236 -21.68186,-9.60958"
       style="fill:none;stroke:#000000;stroke-width:5;stroke-linecap:round;stroke-linejoin:round;stroke-miterlimit:3.97188687;stroke-opacity:1;stroke-dasharray:none" />
    <g
       style="stroke-width:4.79015112;stroke-miterlimit:3.97188687;stroke-dasharray:none"
       transform="matrix(0.38106268,0,0,0.38106268,93.5252,366.69596)"
       id="g5273">
      <path
         inkscape:connector-curvature="0"
         style="fill:none;stroke:#000000;stroke-width:9.84090042;stroke-linecap:round;stroke-linejoin:miter;stroke-miterlimit:3.97188687;stroke-opacity:1;stroke-dasharray:none;marker-mid:url(#Arrow1Mend)"
         d="m 60,412.36219 c 76.7558,-19.49341 107.63934,33.55504 143.1436,82.89666 23.61889,32.82408 49.28266,64.00771 91.8564,71.10333"
         id="path5271" />
      <path
         inkscape:connector-curvature="0"
         style="fill:none;stroke:#000000;stroke-width:9.84090042;stroke-linecap:round;stroke-linejoin:miter;stroke-miterlimit:3.97188687;stroke-opacity:1;stroke-dasharray:none;marker-mid:url(#Arrow1Mend)"
         d="m 295,566.36218 c 82.79364,13.79893 135.15609,-23.243 198,-52 72.09795,-32.99159 128.16877,3.42325 162,-41"
         id="path4879"
         sodipodi:nodetypes="csc" />
    </g>
    <path
       transform="matrix(0.40490423,0,0,0.40490423,80.156484,339.4933)"
       d="m 96.873628,454.50339 c 0,3.31945 -2.690951,6.0104 -6.010408,6.0104 -3.319456,0 -6.010407,-2.69095 -6.010407,-6.0104 0,-3.31946 2.690951,-6.01041 6.010407,-6.01041 3.319457,0 6.010408,2.69095 6.010408,6.01041 z"
       sodipodi:ry="6.0104074"
       sodipodi:rx="6.0104074"
       sodipodi:cy="454.50339"
       sodipodi:cx="90.86322"
       id="path5277"
       style="fill:#fd7118;fill-opacity:1;stroke:#000000;stroke-width:12.34859848;stroke-linecap:round;stroke-linejoin:round;stroke-miterlimit:4;stroke-opacity:1;stroke-dasharray:none;stroke-dashoffset:0"
       sodipodi:type="arc" />
    <path
       transform="matrix(0.40490423,0,0,0.40490423,306.2322,362.81689)"
       d="m 96.873628,454.50339 c 0,3.31945 -2.690951,6.0104 -6.010408,6.0104 -3.319456,0 -6.010407,-2.69095 -6.010407,-6.0104 0,-3.31946 2.690951,-6.01041 6.010407,-6.01041 3.319457,0 6.010408,2.69095 6.010408,6.01041 z"
       sodipodi:ry="6.0104074"
       sodipodi:rx="6.0104074"
       sodipodi:cy="454.50339"
       sodipodi:cx="90.86322"
       id="path5277-9"
       style="fill:#3cb371;fill-opacity:1;stroke:#000000;stroke-width:12.34859848;stroke-linecap:round;stroke-linejoin:round;stroke-miterlimit:4;stroke-opacity:1;stroke-dasharray:none;stroke-dashoffset:0"
       sodipodi:type="arc" />
    <text
       xml:space="preserve"
       style="font-size:12px;font-style:normal;font-variant:normal;font-weight:normal;font-stretch:normal;line-height:125%;letter-spacing:0px;word-spacing:0px;fill:#000000;fill-opacity:1;stroke:none;font-family:Times New Roman;-inkscape-font-specification:'Times New Roman,'"
       x="250.71747"
       y="416.23615"
       id="text3189"
       sodipodi:linespacing="125%"><tspan
         sodipodi:role="line"
         id="tspan3191"
         x="250.71747"
         y="416.23615">$\displaystyle\vec{B}$</tspan></text>
    <text
       xml:space="preserve"
       style="font-size:12px;font-style:normal;font-variant:normal;font-weight:normal;font-stretch:normal;text-align:end;line-height:125%;letter-spacing:0px;word-spacing:0px;text-anchor:end;fill:#000000;fill-opacity:1;stroke:none;font-family:Times New Roman;-inkscape-font-specification:'Times New Roman,'"
       x="111.81393"
       y="514.97034"
       id="text4049"
       sodipodi:linespacing="125%"><tspan
         sodipodi:role="line"
         id="tspan4051"
         x="111.81393"
         y="514.97034">$a$</tspan></text>
    <text
       xml:space="preserve"
       style="font-size:12px;font-style:normal;font-variant:normal;font-weight:normal;font-stretch:normal;line-height:125%;letter-spacing:0px;word-spacing:0px;fill:#000000;fill-opacity:1;stroke:none;font-family:Times New Roman;-inkscape-font-specification:'Times New Roman,'"
       x="342.51492"
       y="535.21637"
       id="text4053"
       sodipodi:linespacing="125%"><tspan
         sodipodi:role="line"
         id="tspan4055"
         x="342.51492"
         y="535.21637">$b$</tspan></text>
    <text
       xml:space="preserve"
       style="font-size:12px;font-style:normal;font-variant:normal;font-weight:normal;font-stretch:normal;line-height:125%;letter-spacing:0px;word-spacing:0px;fill:#000000;fill-opacity:1;stroke:none;font-family:Times New Roman;-inkscape-font-specification:'Times New Roman,'"
       x="266.00128"
       y="618.8067"
       id="text4057"
       sodipodi:linespacing="125%"><tspan
         sodipodi:role="line"
         id="tspan4059"
         x="266.00128"
         y="618.8067">opacity is supported</tspan></text>
  </g>
</svg>
