<?xml version="1.0" encoding="UTF-8" standalone="no"?>
<svg
   xmlns:dc="http://purl.org/dc/elements/1.1/"
   xmlns:cc="http://creativecommons.org/ns#"
   xmlns:rdf="http://www.w3.org/1999/02/22-rdf-syntax-ns#"
   xmlns:svg="http://www.w3.org/2000/svg"
   xmlns="http://www.w3.org/2000/svg"
   xmlns:sodipodi="http://sodipodi.sourceforge.net/DTD/sodipodi-0.dtd"
   xmlns:inkscape="http://www.inkscape.org/namespaces/inkscape"
   preserveAspectRatio="xMinYMin meet"
   width="100%"
   height="100%"
   viewBox="0 0 284.000 175.000"
   version="1.1"
   id="svg2"
   inkscape:version="0.48.3.1 r9886"
   sodipodi:docname="example_matlab-retouched.svg">
  <metadata
     id="metadata373">
    <rdf:RDF>
      <cc:Work
         rdf:about="">
        <dc:format>image/svg+xml</dc:format>
        <dc:type
           rdf:resource="http://purl.org/dc/dcmitype/StillImage" />
        <dc:title />
      </cc:Work>
    </rdf:RDF>
  </metadata>
  <defs
     id="defs371">
    <linearGradient
       id="linearGradient5427">
      <stop
         style="stop-color:#0000ff;stop-opacity:1"
         offset="0"
         id="stop5429" />
      <stop
         style="stop-color:#ff0000;stop-opacity:0;"
         offset="1"
         id="stop5431" />
    </linearGradient>
    <marker
       inkscape:stockid="Arrow1Mend"
       orient="auto"
       refY="0.0"
       refX="0.0"
       id="Arrow1Mend"
       style="overflow:visible;">
      <path
         id="path5103"
         d="M 0.0,0.0 L 5.0,-5.0 L -12.5,0.0 L 5.0,5.0 L 0.0,0.0 z "
         style="fill-rule:evenodd;stroke:#000000;stroke-width:1.0pt;"
         transform="scale(0.4) rotate(180) translate(10,0)" />
    </marker>
    <clipPath
       id="ID000009">
      <rect
         x="54.75"
         y="19.75"
         width="197.5"
         height="25"
         id="rect325" />
    </clipPath>
    <clipPath
       id="ID000001">
      <rect
         x="44"
         y="13.125"
         width="213.02"
         height="124.875"
         id="rect11" />
    </clipPath>
    <marker
       style="overflow:visible"
       id="Arrow1Mend6"
       refX="0"
       refY="0"
       orient="auto"
       inkscape:stockid="Arrow1Mend6">
      <path
         transform="matrix(-0.4,0,0,-0.4,-4,0)"
         style="fill:#0000ff;fill-rule:evenodd;stroke:#0000ff;stroke-width:1pt"
         d="M 0,0 5,-5 -12.5,0 5,5 0,0 z"
         id="path4377"
         inkscape:connector-curvature="0" />
    </marker>
    <marker
       style="overflow:visible"
       id="Arrow1Mend4"
       refX="0"
       refY="0"
       orient="auto"
       inkscape:stockid="Arrow1Mend4">
      <path
         transform="matrix(-0.4,0,0,-0.4,-4,0)"
         style="fill:#0000ff;fill-rule:evenodd;stroke:#0000ff;stroke-width:1pt"
         d="M 0,0 5,-5 -12.5,0 5,5 0,0 z"
         id="path4374"
         inkscape:connector-curvature="0" />
    </marker>
  </defs>
  <sodipodi:namedview
     pagecolor="#ffffff"
     bordercolor="#666666"
     borderopacity="1"
     objecttolerance="10"
     gridtolerance="10"
     guidetolerance="10"
     inkscape:pageopacity="0"
     inkscape:pageshadow="2"
     inkscape:window-width="1280"
     inkscape:window-height="967"
     id="namedview369"
     showgrid="false"
     inkscape:zoom="3.1869601"
     inkscape:cx="133.83784"
     inkscape:cy="87.813778"
     inkscape:window-x="0"
     inkscape:window-y="0"
     inkscape:window-maximized="1"
     inkscape:current-layer="svg2" />
  <desc
     id="desc4">Matlab Figure Converted by PLOT2SVG written by Juerg Schwizer</desc>
  <rect
     style="fill:#ffffff;stroke:none"
     id="rect7"
     height="175"
     width="284"
     y="0"
     x="0" />
  <polygon
     points="44,138 257.02,138 257.02,13.125 44,13.125 "
     id="polygon13"
     style="fill:#ffffff;fill-opacity:1;stroke:none" />
  <polygon
     points="44,13.125 257.02,13.125 257.02,13.125 44,13.125 "
     id="polygon15"
     style="fill:#ffffff;fill-opacity:1;stroke:none" />
  <polygon
     points="44,138 44,138 44,13.125 44,13.125 "
     id="polygon17"
     style="fill:#ffffff;fill-opacity:1;stroke:none" />
  <g
     clip-path="url(#ID000001)"
     id="ID000002">
    <polyline
       style="fill:none;stroke:#ff0000;stroke-width:0.5pt;stroke-dasharray:none"
       id="polyline22"
       points="44.000,75.562 46.130,74.901 48.260,73.072 50.391,70.518 52.521,67.884 54.651,65.905 56.781,65.262 58.911,66.453 61.042,69.682 63.172,74.791 65.302,81.262 67.432,88.261 69.562,94.755 71.693,99.657 73.823,101.999 75.953,101.089 78.083,96.650 80.213,88.891 82.344,78.522 84.474,66.691 86.604,54.849 88.734,44.572 90.864,37.344 92.995,34.349 95.125,36.287 97.255,43.247 99.385,54.665 101.515,69.357 103.646,85.651 105.776,101.576 107.906,115.117 110.036,124.465 112.166,128.273 114.297,125.838 116.427,117.222 118.557,103.269 120.687,85.520 122.817,66.039 124.948,47.166 127.078,31.224 129.208,20.229 131.338,15.626 133.468,18.098 135.599,27.464 137.729,42.693 139.859,62.016 141.989,83.142 144.119,103.537 146.250,120.737 148.380,132.654 150.510,137.840 152.640,135.665 154.770,126.397 156.901,111.168 159.031,91.832 161.161,70.734 163.291,50.413 165.421,33.290 167.552,21.373 169.682,16.006 171.812,17.722 173.942,26.182 176.072,40.236 178.203,58.079 180.333,77.488 182.463,96.106 184.593,111.738 186.723,122.615 188.854,127.606 190.984,126.332 193.114,119.193 195.244,107.289 197.374,92.256 199.505,76.041 201.635,60.644 203.765,47.867 205.895,39.093 208.025,35.132 210.156,36.151 212.286,41.687 214.416,50.741 216.546,61.939 218.676,73.740 220.807,84.640 222.937,93.375 225.067,99.071 227.197,101.329 229.327,100.247 231.458,96.362 233.588,90.543 235.718,83.832 237.848,77.281 239.978,71.791 242.109,67.990 244.239,66.159 246.369,66.211 248.499,67.747 250.629,70.140 252.760,72.666 254.890,74.644 257.020,75.562 " />
    <g
       id="g24">
      <polygon
         style="fill:none;stroke:#ff0000;stroke-width:0.5pt;stroke-opacity:1;stroke-dasharray:none"
         id="polygon26"
         points="44,79.562 46.828,75.562 44,71.562 41.172,75.562 41.172,75.562 " />
      <polygon
         style="fill:none;stroke:#ff0000;stroke-width:0.5pt;stroke-opacity:1;stroke-dasharray:none"
         id="polygon28"
         points="46.13,78.901 48.959,74.901 46.13,70.901 43.302,74.901 43.302,74.901 " />
      <polygon
         style="fill:none;stroke:#ff0000;stroke-width:0.5pt;stroke-opacity:1;stroke-dasharray:none"
         id="polygon30"
         points="48.26,77.072 51.089,73.072 48.26,69.072 45.432,73.072 45.432,73.072 " />
      <polygon
         style="fill:none;stroke:#ff0000;stroke-width:0.5pt;stroke-opacity:1;stroke-dasharray:none"
         id="polygon32"
         points="50.391,74.518 53.219,70.518 50.391,66.518 47.562,70.518 47.562,70.518 " />
      <polygon
         style="fill:none;stroke:#ff0000;stroke-width:0.5pt;stroke-opacity:1;stroke-dasharray:none"
         id="polygon34"
         points="52.521,71.884 55.349,67.884 52.521,63.884 49.692,67.884 49.692,67.884 " />
      <polygon
         style="fill:none;stroke:#ff0000;stroke-width:0.5pt;stroke-opacity:1;stroke-dasharray:none"
         id="polygon36"
         points="54.651,69.905 57.479,65.905 54.651,61.905 51.823,65.905 51.823,65.905 " />
      <polygon
         style="fill:none;stroke:#ff0000;stroke-width:0.5pt;stroke-opacity:1;stroke-dasharray:none"
         id="polygon38"
         points="56.781,69.262 59.61,65.262 56.781,61.262 53.953,65.262 53.953,65.262 " />
      <polygon
         style="fill:none;stroke:#ff0000;stroke-width:0.5pt;stroke-opacity:1;stroke-dasharray:none"
         id="polygon40"
         points="58.911,70.453 61.74,66.453 58.911,62.453 56.083,66.453 56.083,66.453 " />
      <polygon
         style="fill:none;stroke:#ff0000;stroke-width:0.5pt;stroke-opacity:1;stroke-dasharray:none"
         id="polygon42"
         points="61.042,73.682 63.87,69.682 61.042,65.682 58.213,69.682 58.213,69.682 " />
      <polygon
         style="fill:none;stroke:#ff0000;stroke-width:0.5pt;stroke-opacity:1;stroke-dasharray:none"
         id="polygon44"
         points="63.172,78.791 66,74.791 63.172,70.791 60.343,74.791 60.343,74.791 " />
      <polygon
         style="fill:none;stroke:#ff0000;stroke-width:0.5pt;stroke-opacity:1;stroke-dasharray:none"
         id="polygon46"
         points="65.302,85.262 68.13,81.262 65.302,77.262 62.474,81.262 62.474,81.262 " />
      <polygon
         style="fill:none;stroke:#ff0000;stroke-width:0.5pt;stroke-opacity:1;stroke-dasharray:none"
         id="polygon48"
         points="67.432,92.261 70.261,88.261 67.432,84.261 64.604,88.261 64.604,88.261 " />
      <polygon
         style="fill:none;stroke:#ff0000;stroke-width:0.5pt;stroke-opacity:1;stroke-dasharray:none"
         id="polygon50"
         points="69.562,98.755 72.391,94.755 69.562,90.755 66.734,94.755 66.734,94.755 " />
      <polygon
         style="fill:none;stroke:#ff0000;stroke-width:0.5pt;stroke-opacity:1;stroke-dasharray:none"
         id="polygon52"
         points="71.693,103.657 74.521,99.657 71.693,95.657 68.864,99.657 68.864,99.657 " />
      <polygon
         style="fill:none;stroke:#ff0000;stroke-width:0.5pt;stroke-opacity:1;stroke-dasharray:none"
         id="polygon54"
         points="73.823,105.999 76.651,101.999 73.823,97.999 70.994,101.999 70.994,101.999 " />
      <polygon
         style="fill:none;stroke:#ff0000;stroke-width:0.5pt;stroke-opacity:1;stroke-dasharray:none"
         id="polygon56"
         points="75.953,105.089 78.781,101.089 75.953,97.089 73.125,101.089 73.125,101.089 " />
      <polygon
         style="fill:none;stroke:#ff0000;stroke-width:0.5pt;stroke-opacity:1;stroke-dasharray:none"
         id="polygon58"
         points="78.083,100.65 80.912,96.65 78.083,92.65 75.255,96.65 75.255,96.65 " />
      <polygon
         style="fill:none;stroke:#ff0000;stroke-width:0.5pt;stroke-opacity:1;stroke-dasharray:none"
         id="polygon60"
         points="80.213,92.891 83.042,88.891 80.213,84.891 77.385,88.891 77.385,88.891 " />
      <polygon
         style="fill:none;stroke:#ff0000;stroke-width:0.5pt;stroke-opacity:1;stroke-dasharray:none"
         id="polygon62"
         points="82.344,82.522 85.172,78.522 82.344,74.522 79.515,78.522 79.515,78.522 " />
      <polygon
         style="fill:none;stroke:#ff0000;stroke-width:0.5pt;stroke-opacity:1;stroke-dasharray:none"
         id="polygon64"
         points="84.474,70.691 87.302,66.691 84.474,62.691 81.645,66.691 81.645,66.691 " />
      <polygon
         style="fill:none;stroke:#ff0000;stroke-width:0.5pt;stroke-opacity:1;stroke-dasharray:none"
         id="polygon66"
         points="86.604,58.849 89.432,54.849 86.604,50.849 83.776,54.849 83.776,54.849 " />
      <polygon
         style="fill:none;stroke:#ff0000;stroke-width:0.5pt;stroke-opacity:1;stroke-dasharray:none"
         id="polygon68"
         points="88.734,48.572 91.563,44.572 88.734,40.572 85.906,44.572 85.906,44.572 " />
      <polygon
         style="fill:none;stroke:#ff0000;stroke-width:0.5pt;stroke-opacity:1;stroke-dasharray:none"
         id="polygon70"
         points="90.864,41.344 93.693,37.344 90.864,33.344 88.036,37.344 88.036,37.344 " />
      <polygon
         style="fill:none;stroke:#ff0000;stroke-width:0.5pt;stroke-opacity:1;stroke-dasharray:none"
         id="polygon72"
         points="92.995,38.349 95.823,34.349 92.995,30.349 90.166,34.349 90.166,34.349 " />
      <polygon
         style="fill:none;stroke:#ff0000;stroke-width:0.5pt;stroke-opacity:1;stroke-dasharray:none"
         id="polygon74"
         points="95.125,40.287 97.953,36.287 95.125,32.287 92.296,36.287 92.296,36.287 " />
      <polygon
         style="fill:none;stroke:#ff0000;stroke-width:0.5pt;stroke-opacity:1;stroke-dasharray:none"
         id="polygon76"
         points="97.255,47.247 100.083,43.247 97.255,39.247 94.427,43.247 94.427,43.247 " />
      <polygon
         style="fill:none;stroke:#ff0000;stroke-width:0.5pt;stroke-opacity:1;stroke-dasharray:none"
         id="polygon78"
         points="99.385,58.665 102.214,54.665 99.385,50.665 96.557,54.665 96.557,54.665 " />
      <polygon
         style="fill:none;stroke:#ff0000;stroke-width:0.5pt;stroke-opacity:1;stroke-dasharray:none"
         id="polygon80"
         points="101.515,73.357 104.344,69.357 101.515,65.357 98.687,69.357 98.687,69.357 " />
      <polygon
         style="fill:none;stroke:#ff0000;stroke-width:0.5pt;stroke-opacity:1;stroke-dasharray:none"
         id="polygon82"
         points="103.646,89.651 106.474,85.651 103.646,81.651 100.817,85.651 100.817,85.651 " />
      <polygon
         style="fill:none;stroke:#ff0000;stroke-width:0.5pt;stroke-opacity:1;stroke-dasharray:none"
         id="polygon84"
         points="105.776,105.576 108.604,101.576 105.776,97.576 102.947,101.576 102.947,101.576 " />
      <polygon
         style="fill:none;stroke:#ff0000;stroke-width:0.5pt;stroke-opacity:1;stroke-dasharray:none"
         id="polygon86"
         points="107.906,119.117 110.734,115.117 107.906,111.117 105.078,115.117 105.078,115.117 " />
      <polygon
         style="fill:none;stroke:#ff0000;stroke-width:0.5pt;stroke-opacity:1;stroke-dasharray:none"
         id="polygon88"
         points="110.036,128.465 112.865,124.465 110.036,120.465 107.208,124.465 107.208,124.465 " />
      <polygon
         style="fill:none;stroke:#ff0000;stroke-width:0.5pt;stroke-opacity:1;stroke-dasharray:none"
         id="polygon90"
         points="112.166,132.273 114.995,128.273 112.166,124.273 109.338,128.273 109.338,128.273 " />
      <polygon
         style="fill:none;stroke:#ff0000;stroke-width:0.5pt;stroke-opacity:1;stroke-dasharray:none"
         id="polygon92"
         points="114.297,129.838 117.125,125.838 114.297,121.838 111.468,125.838 111.468,125.838 " />
      <polygon
         style="fill:none;stroke:#ff0000;stroke-width:0.5pt;stroke-opacity:1;stroke-dasharray:none"
         id="polygon94"
         points="116.427,121.222 119.255,117.222 116.427,113.222 113.598,117.222 113.598,117.222 " />
      <polygon
         style="fill:none;stroke:#ff0000;stroke-width:0.5pt;stroke-opacity:1;stroke-dasharray:none"
         id="polygon96"
         points="118.557,107.269 121.385,103.269 118.557,99.269 115.729,103.269 115.729,103.269 " />
      <polygon
         style="fill:none;stroke:#ff0000;stroke-width:0.5pt;stroke-opacity:1;stroke-dasharray:none"
         id="polygon98"
         points="120.687,89.52 123.516,85.52 120.687,81.52 117.859,85.52 117.859,85.52 " />
      <polygon
         style="fill:none;stroke:#ff0000;stroke-width:0.5pt;stroke-opacity:1;stroke-dasharray:none"
         id="polygon100"
         points="122.817,70.039 125.646,66.039 122.817,62.039 119.989,66.039 119.989,66.039 " />
      <polygon
         style="fill:none;stroke:#ff0000;stroke-width:0.5pt;stroke-opacity:1;stroke-dasharray:none"
         id="polygon102"
         points="124.948,51.166 127.776,47.166 124.948,43.166 122.119,47.166 122.119,47.166 " />
      <polygon
         style="fill:none;stroke:#ff0000;stroke-width:0.5pt;stroke-opacity:1;stroke-dasharray:none"
         id="polygon104"
         points="127.078,35.224 129.906,31.224 127.078,27.224 124.249,31.224 124.249,31.224 " />
      <polygon
         style="fill:none;stroke:#ff0000;stroke-width:0.5pt;stroke-opacity:1;stroke-dasharray:none"
         id="polygon106"
         points="129.208,24.229 132.036,20.229 129.208,16.229 126.38,20.229 126.38,20.229 " />
      <polygon
         style="fill:none;stroke:#ff0000;stroke-width:0.5pt;stroke-opacity:1;stroke-dasharray:none"
         id="polygon108"
         points="131.338,19.626 134.167,15.626 131.338,11.626 128.51,15.626 128.51,15.626 " />
      <polygon
         style="fill:none;stroke:#ff0000;stroke-width:0.5pt;stroke-opacity:1;stroke-dasharray:none"
         id="polygon110"
         points="133.468,22.098 136.297,18.098 133.468,14.098 130.64,18.098 130.64,18.098 " />
      <polygon
         style="fill:none;stroke:#ff0000;stroke-width:0.5pt;stroke-opacity:1;stroke-dasharray:none"
         id="polygon112"
         points="135.599,31.464 138.427,27.464 135.599,23.464 132.77,27.464 132.77,27.464 " />
      <polygon
         style="fill:none;stroke:#ff0000;stroke-width:0.5pt;stroke-opacity:1;stroke-dasharray:none"
         id="polygon114"
         points="137.729,46.693 140.557,42.693 137.729,38.693 134.9,42.693 134.9,42.693 " />
      <polygon
         style="fill:none;stroke:#ff0000;stroke-width:0.5pt;stroke-opacity:1;stroke-dasharray:none"
         id="polygon116"
         points="139.859,66.016 142.687,62.016 139.859,58.016 137.031,62.016 137.031,62.016 " />
      <polygon
         style="fill:none;stroke:#ff0000;stroke-width:0.5pt;stroke-opacity:1;stroke-dasharray:none"
         id="polygon118"
         points="141.989,87.142 144.818,83.142 141.989,79.142 139.161,83.142 139.161,83.142 " />
      <polygon
         style="fill:none;stroke:#ff0000;stroke-width:0.5pt;stroke-opacity:1;stroke-dasharray:none"
         id="polygon120"
         points="144.119,107.537 146.948,103.537 144.119,99.537 141.291,103.537 141.291,103.537 " />
      <polygon
         style="fill:none;stroke:#ff0000;stroke-width:0.5pt;stroke-opacity:1;stroke-dasharray:none"
         id="polygon122"
         points="146.25,124.737 149.078,120.737 146.25,116.737 143.421,120.737 143.421,120.737 " />
      <polygon
         style="fill:none;stroke:#ff0000;stroke-width:0.5pt;stroke-opacity:1;stroke-dasharray:none"
         id="polygon124"
         points="148.38,136.654 151.208,132.654 148.38,128.654 145.551,132.654 145.551,132.654 " />
      <polygon
         style="fill:none;stroke:#ff0000;stroke-width:0.5pt;stroke-opacity:1;stroke-dasharray:none"
         id="polygon126"
         points="150.51,141.84 153.338,137.84 150.51,133.84 147.682,137.84 147.682,137.84 " />
      <polygon
         style="fill:none;stroke:#ff0000;stroke-width:0.5pt;stroke-opacity:1;stroke-dasharray:none"
         id="polygon128"
         points="152.64,139.665 155.469,135.665 152.64,131.665 149.812,135.665 149.812,135.665 " />
      <polygon
         style="fill:none;stroke:#ff0000;stroke-width:0.5pt;stroke-opacity:1;stroke-dasharray:none"
         id="polygon130"
         points="154.77,130.397 157.599,126.397 154.77,122.397 151.942,126.397 151.942,126.397 " />
      <polygon
         style="fill:none;stroke:#ff0000;stroke-width:0.5pt;stroke-opacity:1;stroke-dasharray:none"
         id="polygon132"
         points="156.901,115.168 159.729,111.168 156.901,107.168 154.072,111.168 154.072,111.168 " />
      <polygon
         style="fill:none;stroke:#ff0000;stroke-width:0.5pt;stroke-opacity:1;stroke-dasharray:none"
         id="polygon134"
         points="159.031,95.832 161.859,91.832 159.031,87.832 156.202,91.832 156.202,91.832 " />
      <polygon
         style="fill:none;stroke:#ff0000;stroke-width:0.5pt;stroke-opacity:1;stroke-dasharray:none"
         id="polygon136"
         points="161.161,74.734 163.989,70.734 161.161,66.734 158.333,70.734 158.333,70.734 " />
      <polygon
         style="fill:none;stroke:#ff0000;stroke-width:0.5pt;stroke-opacity:1;stroke-dasharray:none"
         id="polygon138"
         points="163.291,54.413 166.12,50.413 163.291,46.413 160.463,50.413 160.463,50.413 " />
      <polygon
         style="fill:none;stroke:#ff0000;stroke-width:0.5pt;stroke-opacity:1;stroke-dasharray:none"
         id="polygon140"
         points="165.421,37.29 168.25,33.29 165.421,29.29 162.593,33.29 162.593,33.29 " />
      <polygon
         style="fill:none;stroke:#ff0000;stroke-width:0.5pt;stroke-opacity:1;stroke-dasharray:none"
         id="polygon142"
         points="167.552,25.373 170.38,21.373 167.552,17.373 164.723,21.373 164.723,21.373 " />
      <polygon
         style="fill:none;stroke:#ff0000;stroke-width:0.5pt;stroke-opacity:1;stroke-dasharray:none"
         id="polygon144"
         points="169.682,20.006 172.51,16.006 169.682,12.006 166.853,16.006 166.853,16.006 " />
      <polygon
         style="fill:none;stroke:#ff0000;stroke-width:0.5pt;stroke-opacity:1;stroke-dasharray:none"
         id="polygon146"
         points="171.812,21.722 174.64,17.722 171.812,13.722 168.984,17.722 168.984,17.722 " />
      <polygon
         style="fill:none;stroke:#ff0000;stroke-width:0.5pt;stroke-opacity:1;stroke-dasharray:none"
         id="polygon148"
         points="173.942,30.182 176.771,26.182 173.942,22.182 171.114,26.182 171.114,26.182 " />
      <polygon
         style="fill:none;stroke:#ff0000;stroke-width:0.5pt;stroke-opacity:1;stroke-dasharray:none"
         id="polygon150"
         points="176.072,44.236 178.901,40.236 176.072,36.236 173.244,40.236 173.244,40.236 " />
      <polygon
         style="fill:none;stroke:#ff0000;stroke-width:0.5pt;stroke-opacity:1;stroke-dasharray:none"
         id="polygon152"
         points="178.203,62.079 181.031,58.079 178.203,54.079 175.374,58.079 175.374,58.079 " />
      <polygon
         style="fill:none;stroke:#ff0000;stroke-width:0.5pt;stroke-opacity:1;stroke-dasharray:none"
         id="polygon154"
         points="180.333,81.488 183.161,77.488 180.333,73.488 177.504,77.488 177.504,77.488 " />
      <polygon
         style="fill:none;stroke:#ff0000;stroke-width:0.5pt;stroke-opacity:1;stroke-dasharray:none"
         id="polygon156"
         points="182.463,100.106 185.291,96.106 182.463,92.106 179.635,96.106 179.635,96.106 " />
      <polygon
         style="fill:none;stroke:#ff0000;stroke-width:0.5pt;stroke-opacity:1;stroke-dasharray:none"
         id="polygon158"
         points="184.593,115.738 187.422,111.738 184.593,107.738 181.765,111.738 181.765,111.738 " />
      <polygon
         style="fill:none;stroke:#ff0000;stroke-width:0.5pt;stroke-opacity:1;stroke-dasharray:none"
         id="polygon160"
         points="186.723,126.615 189.552,122.615 186.723,118.615 183.895,122.615 183.895,122.615 " />
      <polygon
         style="fill:none;stroke:#ff0000;stroke-width:0.5pt;stroke-opacity:1;stroke-dasharray:none"
         id="polygon162"
         points="188.854,131.606 191.682,127.606 188.854,123.606 186.025,127.606 186.025,127.606 " />
      <polygon
         style="fill:none;stroke:#ff0000;stroke-width:0.5pt;stroke-opacity:1;stroke-dasharray:none"
         id="polygon164"
         points="190.984,130.332 193.812,126.332 190.984,122.332 188.155,126.332 188.155,126.332 " />
      <polygon
         style="fill:none;stroke:#ff0000;stroke-width:0.5pt;stroke-opacity:1;stroke-dasharray:none"
         id="polygon166"
         points="193.114,123.193 195.942,119.193 193.114,115.193 190.286,119.193 190.286,119.193 " />
      <polygon
         style="fill:none;stroke:#ff0000;stroke-width:0.5pt;stroke-opacity:1;stroke-dasharray:none"
         id="polygon168"
         points="195.244,111.289 198.073,107.289 195.244,103.289 192.416,107.289 192.416,107.289 " />
      <polygon
         style="fill:none;stroke:#ff0000;stroke-width:0.5pt;stroke-opacity:1;stroke-dasharray:none"
         id="polygon170"
         points="197.374,96.256 200.203,92.256 197.374,88.256 194.546,92.256 194.546,92.256 " />
      <polygon
         style="fill:none;stroke:#ff0000;stroke-width:0.5pt;stroke-opacity:1;stroke-dasharray:none"
         id="polygon172"
         points="199.505,80.041 202.333,76.041 199.505,72.041 196.676,76.041 196.676,76.041 " />
      <polygon
         style="fill:none;stroke:#ff0000;stroke-width:0.5pt;stroke-opacity:1;stroke-dasharray:none"
         id="polygon174"
         points="201.635,64.644 204.463,60.644 201.635,56.644 198.806,60.644 198.806,60.644 " />
      <polygon
         style="fill:none;stroke:#ff0000;stroke-width:0.5pt;stroke-opacity:1;stroke-dasharray:none"
         id="polygon176"
         points="203.765,51.867 206.593,47.867 203.765,43.867 200.937,47.867 200.937,47.867 " />
      <polygon
         style="fill:none;stroke:#ff0000;stroke-width:0.5pt;stroke-opacity:1;stroke-dasharray:none"
         id="polygon178"
         points="205.895,43.093 208.724,39.093 205.895,35.093 203.067,39.093 203.067,39.093 " />
      <polygon
         style="fill:none;stroke:#ff0000;stroke-width:0.5pt;stroke-opacity:1;stroke-dasharray:none"
         id="polygon180"
         points="208.025,39.132 210.854,35.132 208.025,31.132 205.197,35.132 205.197,35.132 " />
      <polygon
         style="fill:none;stroke:#ff0000;stroke-width:0.5pt;stroke-opacity:1;stroke-dasharray:none"
         id="polygon182"
         points="210.156,40.151 212.984,36.151 210.156,32.151 207.327,36.151 207.327,36.151 " />
      <polygon
         style="fill:none;stroke:#ff0000;stroke-width:0.5pt;stroke-opacity:1;stroke-dasharray:none"
         id="polygon184"
         points="212.286,45.687 215.114,41.687 212.286,37.687 209.457,41.687 209.457,41.687 " />
      <polygon
         style="fill:none;stroke:#ff0000;stroke-width:0.5pt;stroke-opacity:1;stroke-dasharray:none"
         id="polygon186"
         points="214.416,54.741 217.244,50.741 214.416,46.741 211.588,50.741 211.588,50.741 " />
      <polygon
         style="fill:none;stroke:#ff0000;stroke-width:0.5pt;stroke-opacity:1;stroke-dasharray:none"
         id="polygon188"
         points="216.546,65.939 219.375,61.939 216.546,57.939 213.718,61.939 213.718,61.939 " />
      <polygon
         style="fill:none;stroke:#ff0000;stroke-width:0.5pt;stroke-opacity:1;stroke-dasharray:none"
         id="polygon190"
         points="218.676,77.74 221.505,73.74 218.676,69.74 215.848,73.74 215.848,73.74 " />
      <polygon
         style="fill:none;stroke:#ff0000;stroke-width:0.5pt;stroke-opacity:1;stroke-dasharray:none"
         id="polygon192"
         points="220.807,88.64 223.635,84.64 220.807,80.64 217.978,84.64 217.978,84.64 " />
      <polygon
         style="fill:none;stroke:#ff0000;stroke-width:0.5pt;stroke-opacity:1;stroke-dasharray:none"
         id="polygon194"
         points="222.937,97.375 225.765,93.375 222.937,89.375 220.108,93.375 220.108,93.375 " />
      <polygon
         style="fill:none;stroke:#ff0000;stroke-width:0.5pt;stroke-opacity:1;stroke-dasharray:none"
         id="polygon196"
         points="225.067,103.071 227.895,99.071 225.067,95.071 222.239,99.071 222.239,99.071 " />
      <polygon
         style="fill:none;stroke:#ff0000;stroke-width:0.5pt;stroke-opacity:1;stroke-dasharray:none"
         id="polygon198"
         points="227.197,105.329 230.026,101.329 227.197,97.329 224.369,101.329 224.369,101.329 " />
      <polygon
         style="fill:none;stroke:#ff0000;stroke-width:0.5pt;stroke-opacity:1;stroke-dasharray:none"
         id="polygon200"
         points="229.327,104.247 232.156,100.247 229.327,96.247 226.499,100.247 226.499,100.247 " />
      <polygon
         style="fill:none;stroke:#ff0000;stroke-width:0.5pt;stroke-opacity:1;stroke-dasharray:none"
         id="polygon202"
         points="231.458,100.362 234.286,96.362 231.458,92.362 228.629,96.362 228.629,96.362 " />
      <polygon
         style="fill:none;stroke:#ff0000;stroke-width:0.5pt;stroke-opacity:1;stroke-dasharray:none"
         id="polygon204"
         points="233.588,94.543 236.416,90.543 233.588,86.543 230.759,90.543 230.759,90.543 " />
      <polygon
         style="fill:none;stroke:#ff0000;stroke-width:0.5pt;stroke-opacity:1;stroke-dasharray:none"
         id="polygon206"
         points="235.718,87.832 238.546,83.832 235.718,79.832 232.89,83.832 232.89,83.832 " />
      <polygon
         style="fill:none;stroke:#ff0000;stroke-width:0.5pt;stroke-opacity:1;stroke-dasharray:none"
         id="polygon208"
         points="237.848,81.281 240.677,77.281 237.848,73.281 235.02,77.281 235.02,77.281 " />
      <polygon
         style="fill:none;stroke:#ff0000;stroke-width:0.5pt;stroke-opacity:1;stroke-dasharray:none"
         id="polygon210"
         points="239.978,75.791 242.807,71.791 239.978,67.791 237.15,71.791 237.15,71.791 " />
      <polygon
         style="fill:none;stroke:#ff0000;stroke-width:0.5pt;stroke-opacity:1;stroke-dasharray:none"
         id="polygon212"
         points="242.109,71.99 244.937,67.99 242.109,63.99 239.28,67.99 239.28,67.99 " />
      <polygon
         style="fill:none;stroke:#ff0000;stroke-width:0.5pt;stroke-opacity:1;stroke-dasharray:none"
         id="polygon214"
         points="244.239,70.159 247.067,66.159 244.239,62.159 241.41,66.159 241.41,66.159 " />
      <polygon
         style="fill:none;stroke:#ff0000;stroke-width:0.5pt;stroke-opacity:1;stroke-dasharray:none"
         id="polygon216"
         points="246.369,70.211 249.197,66.211 246.369,62.211 243.541,66.211 243.541,66.211 " />
      <polygon
         style="fill:none;stroke:#ff0000;stroke-width:0.5pt;stroke-opacity:1;stroke-dasharray:none"
         id="polygon218"
         points="248.499,71.747 251.328,67.747 248.499,63.747 245.671,67.747 245.671,67.747 " />
      <polygon
         style="fill:none;stroke:#ff0000;stroke-width:0.5pt;stroke-opacity:1;stroke-dasharray:none"
         id="polygon220"
         points="250.629,74.14 253.458,70.14 250.629,66.14 247.801,70.14 247.801,70.14 " />
      <polygon
         style="fill:none;stroke:#ff0000;stroke-width:0.5pt;stroke-opacity:1;stroke-dasharray:none"
         id="polygon222"
         points="252.76,76.666 255.588,72.666 252.76,68.666 249.931,72.666 249.931,72.666 " />
      <polygon
         style="fill:none;stroke:#ff0000;stroke-width:0.5pt;stroke-opacity:1;stroke-dasharray:none"
         id="polygon224"
         points="254.89,78.644 257.718,74.644 254.89,70.644 252.061,74.644 252.061,74.644 " />
      <polygon
         style="fill:none;stroke:#ff0000;stroke-width:0.5pt;stroke-opacity:1;stroke-dasharray:none"
         id="polygon226"
         points="257.02,79.562 259.848,75.562 257.02,71.562 254.192,75.562 254.192,75.562 " />
    </g>
  </g>
  <g
     id="ID000003">
    <g
       id="g229"
       transform="translate(149.461,172.975)">
      <g
         id="g231">
        <text
           style="font-size:12.5px;text-anchor:middle;fill:#000000;font-family:Helvetica"
           id="text233"
           font-size="10pt"
           y="0"
           x="0">$t$, s</text>
      </g>
    </g>
  </g>
  <g
     id="ID000004"
     transform="translate(4,0)">
    <g
       id="g236"
       transform="translate(17.889,76.561)">
      <g
         id="g238"
         transform="matrix(0,-1,1,0,0,0)">
        <text
           style="font-size:12.5px;text-anchor:middle;fill:#000000;font-family:Helvetica"
           id="text240"
           font-size="10pt"
           y="0"
           x="0">$l$, m</text>
      </g>
    </g>
  </g>
  <g
     id="ID000005" />
  <g
     id="ID000006" />
  <g
     id="ID000007" />
  <polyline
     style="fill:none;stroke:#000000;stroke-width:0.5pt;stroke-dasharray:none"
     id="polyline247"
     points="97.255,138.000 97.255,135.870 " />
  <polyline
     style="fill:none;stroke:#000000;stroke-width:0.5pt;stroke-dasharray:none"
     id="polyline249"
     points="150.510,138.000 150.510,135.870 " />
  <polyline
     style="fill:none;stroke:#000000;stroke-width:0.5pt;stroke-dasharray:none"
     id="polyline251"
     points="203.765,138.000 203.765,135.870 " />
  <polyline
     style="fill:none;stroke:#000000;stroke-width:0.5pt;stroke-dasharray:none"
     id="polyline253"
     points="44.000,138.000 257.020,138.000 " />
  <polyline
     style="fill:none;stroke:#000000;stroke-width:0.5pt;stroke-dasharray:none"
     id="polyline255"
     points="97.255,13.125 97.255,15.255 " />
  <polyline
     style="fill:none;stroke:#000000;stroke-width:0.5pt;stroke-dasharray:none"
     id="polyline257"
     points="150.510,13.125 150.510,15.255 " />
  <polyline
     style="fill:none;stroke:#000000;stroke-width:0.5pt;stroke-dasharray:none"
     id="polyline259"
     points="203.765,13.125 203.765,15.255 " />
  <polyline
     style="fill:none;stroke:#000000;stroke-width:0.5pt;stroke-dasharray:none"
     id="polyline261"
     points="44.000,13.125 257.020,13.125 " />
  <g
     id="g4956">
    <g
       transform="translate(44,150.298)"
       id="g263">
      <g
         id="g265">
        <text
           x="0"
           y="0"
           font-size="10pt"
           id="text267"
           style="font-size:12.5px;text-anchor:middle;fill:#000000;font-family:Helvetica">$0$</text>
      </g>
    </g>
    <g
       transform="translate(97.255,150.298)"
       id="g269">
      <g
         id="g271">
        <text
           x="0"
           y="0"
           font-size="10pt"
           id="text273"
           style="font-size:12.5px;text-anchor:middle;fill:#000000;font-family:Helvetica">$\pi/4$</text>
      </g>
    </g>
    <g
       transform="translate(150.51,150.298)"
       id="g275">
      <g
         id="g277">
        <text
           x="0"
           y="0"
           font-size="10pt"
           id="text279"
           style="font-size:12.5px;text-anchor:middle;fill:#000000;font-family:Helvetica">$\pi/2$</text>
      </g>
    </g>
    <g
       transform="translate(203.765,150.298)"
       id="g281">
      <g
         id="g283">
        <text
           x="0"
           y="0"
           font-size="10pt"
           id="text285"
           style="font-size:12.5px;text-anchor:middle;fill:#000000;font-family:Helvetica">$3\pi/4$</text>
      </g>
    </g>
    <g
       transform="translate(257.02,150.298)"
       id="g287">
      <g
         id="g289">
        <text
           x="0"
           y="0"
           font-size="10pt"
           id="text291"
           style="font-size:12.5px;text-anchor:middle;fill:#000000;font-family:Helvetica">$\pi$</text>
      </g>
    </g>
  </g>
  <polyline
     style="fill:none;stroke:#000000;stroke-width:0.5pt;stroke-dasharray:none"
     id="polyline293"
     points="44.000,75.562 46.130,75.562 " />
  <polyline
     style="fill:none;stroke:#000000;stroke-width:0.5pt;stroke-dasharray:none"
     id="polyline295"
     points="44.000,138.000 44.000,13.125 " />
  <polyline
     style="fill:none;stroke:#000000;stroke-width:0.5pt;stroke-dasharray:none"
     id="polyline297"
     points="257.020,75.562 254.890,75.562 " />
  <polyline
     style="fill:none;stroke:#000000;stroke-width:0.5pt;stroke-dasharray:none"
     id="polyline299"
     points="257.020,138.000 257.020,13.125 " />
  <g
     id="g301"
     transform="translate(39.74,140.5)">
    <g
       id="g303">
      <text
         style="font-size:12.5px;text-anchor:end;fill:#000000;font-family:Helvetica"
         id="text305"
         font-size="10pt"
         y="0"
         x="0">-1</text>
    </g>
  </g>
  <g
     id="g307"
     transform="translate(39.74,80.062)">
    <g
       id="g309">
      <text
         style="font-size:12.5px;text-anchor:end;fill:#000000;font-family:Helvetica"
         id="text311"
         font-size="10pt"
         y="0"
         x="0">0</text>
    </g>
  </g>
  <g
     id="g313"
     transform="translate(39.74,17.625)">
    <g
       id="g315">
      <text
         style="font-size:12.5px;text-anchor:end;fill:#000000;font-family:Helvetica"
         id="text317"
         font-size="10pt"
         y="0"
         x="0">1</text>
    </g>
  </g>
  <polyline
     style="fill:none;stroke:#000000;stroke-width:0.5pt;stroke-dasharray:none"
     id="polyline319"
     points="44.000,138.000 44.000,136.751 " />
  <polyline
     style="fill:none;stroke:#000000;stroke-width:0.5pt;stroke-dasharray:none"
     id="polyline321"
     points="44.000,138.000 44.000,138.000 " />
  <polygon
     points="54.75,19.75 252.25,19.75 252.25,19.75 54.75,19.75 "
     id="polygon329"
     style="fill:#ffffff;fill-opacity:1;stroke:none" />
  <polygon
     points="54.75,44.75 54.75,44.75 54.75,19.75 54.75,19.75 "
     id="polygon331"
     style="fill:#ffffff;fill-opacity:1;stroke:none" />
  <g
     id="g5445"
     transform="translate(-28,0)">
    <rect
       y="14.031558"
       x="220.90016"
       height="123.315"
       width="36.084545"
       id="rect5435"
       style="opacity:0.25615764;fill:#0000ff;fill-opacity:1;stroke:#000000;stroke-width:1;stroke-miterlimit:4;stroke-opacity:1;stroke-dasharray:none" />
    <text
       sodipodi:linespacing="125%"
       id="text5437"
       y="119.46118"
       x="238.57993"
       style="font-size:12px;font-style:normal;font-variant:normal;font-weight:normal;font-stretch:normal;text-align:center;line-height:125%;letter-spacing:0px;word-spacing:0px;text-anchor:middle;fill:#000000;fill-opacity:1;stroke:none;font-family:Arial;-inkscape-font-specification:Arial"
       xml:space="preserve"><tspan
         y="119.46118"
         x="238.57993"
         id="tspan5439"
         sodipodi:role="line">MTA</tspan></text>
    <text
       sodipodi:linespacing="125%"
       id="text5441"
       y="132.95366"
       x="238.7699"
       style="font-size:12px;font-style:normal;font-variant:normal;font-weight:normal;font-stretch:normal;text-align:center;line-height:125%;letter-spacing:0px;word-spacing:0px;text-anchor:middle;fill:#000000;fill-opacity:1;stroke:none;font-family:Arial;-inkscape-font-specification:Arial"
       xml:space="preserve"><tspan
         y="132.95366"
         x="238.7699"
         id="tspan5443"
         sodipodi:role="line">$\nu=0.1$</tspan></text>
  </g>
  <g
     id="g4743"
     transform="translate(23.298741,23.219619)">
    <rect
       y="-19.542753"
       x="121.74612"
       height="26.357407"
       width="110.13631"
       id="rect3889"
       style="fill:#ffffff;fill-opacity:1;stroke:#000000;stroke-width:0.49999994;stroke-miterlimit:4;stroke-opacity:1;stroke-dasharray:none" />
    <g
       transform="translate(58.990384,-34.829428)"
       id="ID000010">
      <g
         transform="translate(104.376,37.75)"
         id="g336">
        <g
           id="g338">
          <text
             x="-0.31377864"
             y="-1.8826718"
             font-size="10pt"
             id="text340"
             style="font-size:12.5px;text-anchor:start;fill:#000000;font-family:Helvetica">
            <tspan
               id="tspan4685"
               style="font-size:10px;font-family:Times New Roman;-inkscape-font-specification:Times New Roman">$\sin(x) \sin(\sqrt{120} x)$</tspan>
          </text>
        </g>
      </g>
    </g>
    <g
       transform="translate(61.814392,-33.888092)"
       id="g3839">
      <g
         clip-path="url(#ID000009)"
         id="ID000011">
        <polyline
           style="fill:none;stroke:#ff0000;stroke-width:0.5pt;stroke-dasharray:none"
           id="polyline343"
           points="62.250,32.250 99.750,32.250 " />
        <g
           id="g345" />
      </g>
      <g
         clip-path="url(#ID000009)"
         id="ID000012">
        <g
           id="g348">
          <polygon
             style="fill:none;stroke:#ff0000;stroke-width:0.5pt;stroke-opacity:1;stroke-dasharray:none"
             id="polygon350"
             points="78.172,32.25 81,36.25 83.828,32.25 81,28.25 78.172,32.25 " />
        </g>
      </g>
    </g>
  </g>
  <g
     id="ID000013" />
  <g
     id="ID000014" />
  <g
     id="ID000015" />
  <rect
     style="opacity:0.57201969;fill:#ffffff;fill-opacity:1;stroke:none"
     id="rect5722"
     width="52.401028"
     height="13.178702"
     x="90.054466"
     y="59.215683" />
  <text
     xml:space="preserve"
     style="font-size:10px;font-style:normal;font-variant:normal;font-weight:normal;font-stretch:normal;text-align:center;line-height:125%;letter-spacing:0px;word-spacing:0px;text-anchor:middle;fill:#000000;fill-opacity:1;stroke:none;font-family:Arial;-inkscape-font-specification:Arial"
     x="117.79255"
     y="68.942825"
     id="text5718"
     sodipodi:linespacing="125%"><tspan
       sodipodi:role="line"
       id="tspan5720"
       x="117.79255"
       y="68.942825">\textbf{special points}</tspan></text>
  <path
     sodipodi:nodetypes="cc"
     inkscape:connector-curvature="0"
     id="path5088"
     d="M 115.12165,70.921388 C 108.73601,94.654695 82.311575,70.021335 74.240014,100.61881"
     style="fill:none;stroke:#0000ff;stroke-width:1px;stroke-linecap:butt;stroke-linejoin:miter;stroke-opacity:1;marker-end:url(#Arrow1Mend6)" />
  <path
     sodipodi:nodetypes="csc"
     inkscape:connector-curvature="0"
     id="path5534"
     d="m 117.3181,70.921388 c -0.62757,10.354693 7.84446,23.21962 25.72985,26.043623 7.5475,1.191711 8.47202,32.005419 8.47202,32.005419"
     style="fill:none;stroke:#0000ff;stroke-width:1px;stroke-linecap:butt;stroke-linejoin:miter;stroke-opacity:1;marker-end:url(#Arrow1Mend4)" />
  <path
     style="fill:none;stroke:#0000ff;stroke-width:1px;stroke-linecap:butt;stroke-linejoin:miter;stroke-opacity:1;marker-end:url(#Arrow1Mend4)"
     d="m 31.377866,36.309842 53.938564,0"
     id="path5452"
     inkscape:connector-curvature="0" />
  <text
     xml:space="preserve"
     style="font-size:12px;font-style:normal;font-variant:normal;font-weight:normal;font-stretch:normal;text-align:end;line-height:125%;letter-spacing:0px;word-spacing:0px;text-anchor:end;fill:#000000;fill-opacity:1;stroke:none;font-family:Arial;-inkscape-font-specification:Arial"
     x="38.594772"
     y="34.113392"
     id="text5640"
     sodipodi:linespacing="125%"><tspan
       sodipodi:role="line"
       id="tspan5642"
       x="38.594772"
       y="34.113392">stop here</tspan></text>
  <text
     xml:space="preserve"
     style="font-size:12px;font-style:normal;font-variant:normal;font-weight:normal;font-stretch:normal;text-align:center;line-height:125%;letter-spacing:0px;word-spacing:0px;text-anchor:middle;fill:#000000;fill-opacity:1;stroke:none;font-family:Arial;-inkscape-font-specification:Arial"
     x="200.87958"
     y="12.345338"
     id="text6485"
     sodipodi:linespacing="125%"><tspan
       sodipodi:role="line"
       id="tspan6487"
       x="200.87958"
       y="12.345338">Inkscape retouched</tspan></text>
</svg>
